// 17225
//== Roles, Final
== Розділ 98. Ролі, фінал

// 17226
//__Sunday, April 19th, 6:34pm.__
__Неділя, 18:34 19 квітня.__

// 17227
//Daphne Greengrass walked quietly toward the Greengrass room below the Slytherin
//dungeons, the privilege of an Ancient House; on her way to drop off her trunk
//from the Hogwarts Express, before she joined the other students for dinner. The
//whole private area had been hers alone ever since Malfoy had gone. Her hand,
//held behind her, made repeated come-along gestures at her huge emerald-studded
//trunk, which seemed hesitant to follow. Maybe the enchantments on the sturdy
//old family device needed to be reapplied; or maybe her trunk was reluctant to
//follow her into Hogwarts, which was no longer safe.
Дафна Ґрінґрас тихо прямувала до кімнати Ґрінґрасів під підземеллями Слизерину --
привілей найдавнішого роду. Вона йшла з Гоґвортського експреса залишити валізу
перед тим, як приєднатися до решти учнів за вечерею. Тепер уся приватна зона
була її, відколи Мелфой залишив школу. Позаду вона весь час робила жест "`іди за
мною`" великій всіяній смарагдами валізі, що, видається, не наважувалася
слідувати за нею. Можливо, чари на цьому давньому громіздкому родинному пристрої
час оновити. А може її валіза не хотіла йти за нею в Гоґвортс, що вже не був
безпечним.

// 17228
//There’d been a long talk between Mother and Father, after they’d been told
//about Hermione; with Daphne hiding around a doorway to listen, choking back her
//tears and trying not to make sounds.
Її матір та батько довго розмовляли були одне з одним про Герміону. А Дафна
ховалася за дверима, щоб підслухати, намагаючись не плакати й не видавати ані
звуку.

// 17229
//Mother had said that the sad fact was that if only one student died every year,
//well, that still made Hogwarts safer than Beauxbatons, let alone Durmstrang.
//There were more ways for a young witch to die than being murdered.
//Beauxbatons’s Transfiguration Master just wasn’t on the same level as
//McGonagall, Mother had said.
Матір казала, що хай як це сумно, та якщо лише один учень помирав би щороку,
Гоґвортс все одно був би безпечнішим за Бобатон, не кажучи вже про Дурмстренґ.
Були різноманітні способи, якими юна відьма може померти, -- не лише бути
вбитою. А майстер трансфігурації Бобатону просто не дотягував до рівня
Макґонеґел, сказала була матір.

// 17230
//Father had soberly remarked how important it was for the Greengrass heir to
//stay at Hogwarts where all the other Noble families sent their children to
//school (it was the reason for the old tradition of the Noble families
//synchronizing the birth of their heirs, to put them in the same year of
//Hogwarts, if they could). And Father had said that being heiress to a Most
//Ancient House meant you couldn’t always stay away from trouble.
Батько помірковано зазначив був, як важливо, щоб спадкоємиця Ґрінґрасів
залишилися в Гоґвортсі, куди решта шляхетних родин відправляли вчитися своїх
дітей (саме через це виникла давня традиція шляхетних родин синхронізувати
народження спадкоємців -- щоб вони вступили до Гоґвортсу в одному році, якщо це
було можливо). І батько сказав був, що спадкоємиця найдавнішого роду не завжди
може триматися подалі від проблем.

// 17231
//She could have done without hearing that last part.
Вона б не засмутилася, якби не підслухала саме цієї частини.

// 17232
//Daphne gulped hard, as she turned the doorknob, and opened the door.
Дафна із зусиллям ковтнула слину, коли повертала дверну ручку й відчинила двері.

// 17233
//“Miss Greengrass -” whispered a shadowy, silvery-robed figure.
-- Міс Ґрінґрас... -- прошепотіло щось у срібній мантії, воно скидалося на тінь.

// 17234
//Daphne screamed and slammed the door and drew her wand and turned to run.
Дафна закричала, захряснула двері, витягла паличку й розвернулася тікати.

// 17235
//“Wait!” cried the voice, now higher and louder.
-- Чекай! -- пролунав крик, тепер більш високий та гучний.

// 17236
//Daphne paused. That couldn’t __possibly__ be who it had sounded like.
Дафна заклякла. Це __просто не міг__ бути той, хто їй причувся.

// 17237
//Slowly, Daphne turned, and opened the door again.
Дафна повільно обернулася й знову відчинила двері.

// 17238
//__“You!”__ Daphne said in astonishment, as she saw the face beneath the
//hood. “I thought you were -”
-- __Ти!__ -- здивовано вигукнула Дафна, коли побачила обличчя під каптуром. --
Я гадала, що ти...

// 17239
//“I come back to you now,” the silvery-robed figure said in a strong voice, “at
//the turn of the -”
// hedrok: @ "at the turn of the" що далі?..
-- Тепер я повернувся, -- сказала людина у срібній мантії впевненим голосом, --
коли все змін...

// 17240
//“__What are you doing in my bedroom?__” shrieked Daphne.
-- __Що ти робиш у моїй спальні?__ -- заверещала Дафна.

// 17241
//“I heard you can cast the mist form of the Patronus Charm. Can I see?”
-- Я чув, що ти здатна створити туман патронуса. Можна мені це побачити?

// 17242
//Daphne stared, and then her blood began to burn. “Why?” she said, keeping her
//wand level. “So you can __kill__ everyone in Slytherin who casts
//un-Slytherin spells? We all __know__ who it was had Hermione killed!”
Дафна втупилася в нього. Її кров почала закипати.

-- Навіщо? -- спитала вона, не опускаючи палички. -- Щоб ти міг __убити__ всіх
слизеринців, що здатні на неслизеринські закляття? Ми всі __знаємо__,
хто влаштував смерть Герміони!

// 17243
//The figure’s voice rose. “I testified under Veritaserum that I tried to help
//Miss Granger! I really was trying to help her, when I grabbed her hand on the
//roof, when I helped her off the floor -”
Хлопець підвищив голос.

-- Я засвідчив під дією сироватки правди, що хотів допомогти міс Ґрейнджер! Я
справді хотів допомогти їй, коли схопив її руку на даху, коли допоміг їй
підвестися з підлоги...

// 17244
//Daphne kept her wand level. “Like your father couldn’t tamper with the Aurors’
//record, if he wanted to! I wasn’t born yesterday, Mister __Malfoy!__”
Паличка Дафни не ворухнулася.

-- Ніби твій батько не міг втрутитися в записи аврорів, якби захотів! Я не вчора
народилася, містере __Мелфой__!

// 17245
//Slowly, as if not to cause alarm, the silver-robed figure drew a wand from his
//robes. Daphne’s hand tightened on her own wand, but then she recognized the
//position of the fingers on the wand, the stance the figure was assuming, and
//she drew a shocked breath -
Повільно, ніби він не хотів її сполохнути, хлопець у срібній мантії витягнув
паличку. Рука Дафни стисла паличку, та коли вона впізнала позицію пальців
й позу хлопця, вона аж втягнула повітря від шоку...

// 17246
//__“Expecto Patronum!__”
-- __Експекто Патронум!__

// 17247
//Silver light leapt from the end of the other’s wand - and condensed, forming a
//shining serpent that seemed to coil in the air as though nesting there.
Срібне світло полилося з кінця палички хлопця та почало густішати, утворило
яскраву змію, що ніби скрутилася посеред повітря в невидимому лігві.

// 17248
//She just gaped.
Дафна просто витріщалася.

// 17249
//“I __did__ try to help Hermione Granger,” Draco Malfoy said with a level
//voice. “Because I know the sickness at the heart of Slytherin’s House, the
//reason why so many of us can’t cast the Patronus Charm any more, is hate. Hate
//of Muggleborns, or just anyone really. People think that’s all Slytherin is
//about now, not cunning or ambition or honorable nobility. And I even know,
//because it’s obvious if you just look, that Hermione Granger wasn’t weak at
//magic.”
-- Я __справді__ хотів допомогти Герміоні Ґрейнджер, -- рівним голосом сказав
Драко Мелфой. -- Бо я знаю коріння хвороби гуртожитку Слизерин, причину, чому
так багато з нас вже не здатні на чари патронуса, -- це ненависть. Ненависть до
маґлородців, та й взагалі-то до будь-кого. Тепер вважається, що Слизерин ні на
що більше й не здатен -- ані на хитрість, ані на амбіцію, ані на поважну
шляхетність. Я навіть знаю, бо це очевидно з першого погляду, що Герміона
Ґрейнджер не була слабкою в магії.

// 17250
//Daphne’s mind had gone completely blank. Her eyes darted around nervously, just
//to check that there wasn’t blood coming from under the doors, like the last
//time Something had Broken.
В голові Дафни не лишилося жодної думки. Вона знервовано розглядала все довкола
-- перевіряла, чи не тече з-під дверей кров, як минулого разу, коли "`щось
зламалося`".

// 17251
//“And I’ve also figured out,” Draco Malfoy said quietly, as the silver snake
//went on shining with unmistakeable light and warmth, “that Hermione Granger
//never really tried to kill me. Maybe she was False-Memory-Charmed, maybe she
//was Legilimized, but now that she’s been murdered, it’s obvious that Miss
//Granger was the target in the first place, when somebody tried to set her up
//for murdering me -”
-- Також я зрозумів, -- тихо сказав Драко Мелфой, а срібна змія й далі світилася
унікальним світлом, випромінювала тепло, -- що насправді Герміона Ґрейнджер
ніколи й не намагалася мене вбити. Можливо, вона була під дією чар хибної
памʼяті, можливо, хтось використав виманологію, та тепер, коли її вбили, стає
очевидним, що саме міс Ґрейнджер була жертвою й у першому випадку, коли хтось
намагався звинуватити її у вбивстві мене...

// 17252
//“D-do-do you know what you’re __saying?__” Daphne’s voice broke. If Lucius
//Malfoy heard his heir saying that - he’d __skin__ Draco and turn him into
//__trousers!__
-- Т-ти хоч розумієш, що __кажеш__? -- голос Дафни надломився. Якщо Луціус
Мелфой почує, що його спадкоємець таке каже... та він __здере з Драко шкіру__ й
зробить з нього __штани__!

// 17253
//Draco Malfoy smiled, metallic robes gleaming in the light of his full corporeal
//Patronus; it was a smile both arrogant and dangerous, like being turned into a
//pair of leather pants was beneath his concerns. “Yes,” said Draco, “but it
//doesn’t matter now. House Malfoy is returning House Potter’s money and
//cancelling the debt.”
Драко Мелфой всміхнувся, його срібно-металева мантія виблискувала в промінні
його матеріального патронуса. Його усмішка була й пихата, і небезпечна, ніби
перетворення на шкіряні штани було найменшою з його проблем.

-- Так, -- сказав Драко, -- але тепер це не має значення. Рід Мелфоїв повертає
родові Поттерів гроші й скасовує борг.

// 17254
//Daphne walked over to her bed and then fell on it, hoping she could wake up
//from the dream once she was in bed.
Дафна підійшла до свого ліжка й впала в нього. Вона сподівалася, що зможе
прокинутися, якщо буде в ліжку.

// 17255
//“I’d like you to join a conspiracy,” said the figure in the shining robes.
//“Everyone in Slytherin who can cast the Patronus Charm, and everyone who can
//learn. That’s how we’ll know to trust each other, when the Silvery Slytherins
//meet.” With a dramatic gesture, Draco Malfoy cast back his hood. “But it won’t
//work without __you, __Daphne Greengrass. You and your family. Your mother
//will negotiate it with Father, but I’d like the Greengrasses to hear the
//proposal from you, first.” Draco Malfoy’s voice lowered grimly. “There is much
//we must speak of, before we eat dinner.”
-- Я хотів би, щоб ти приєдналася до змови, -- сказав хлопець у блискучій
мантії. -- Усі зі Слизерину, хто може викликати патронуса, і всі, хто може
навчитися. Так ми зможемо довіряти одне одному, коли срібні слизеринці
зустрічатимуться.

Драко Мелфой драматично відкинув каптур.

-- Та це не спрацює без __тебе__, -- сказав він, -- Дафно Ґрінґрас. Без тебе й
твоєї родини. Твоя матір  обговорить це з батьком, але я хотів би, щоб Ґрінґраси
почули пропозицію від тебе, -- Драко знизив голос і рішуче додав: -- Нам багато
що треба обговорити перед вечерею.

***

// 17256
//Harry Potter had, apparently, taken to being invisible; they’d glimpsed his
//hand only briefly, when he was handing them the list, written on strange
//not-parchment. Harry had explained that, all things considered, he didn’t
//really think it was smart for him to be __findable__ except on special
//occasions, so he was just going to deal with people as a disembodied floating
//voice from now on, or as a brilliant silver light that hid behind corners where
//nobody could see it, and which could always find his friends no matter where
//they tried to hide. It was, in all honesty, one of the creepiest things which
//Fred and George had ever heard, over a lifetime which had included filling the
//shoes of every student in second-year Slytherin with Transfigured live
//millipedes. Fred and George didn’t think this could possibly be good for
//anyone’s sanity, but they didn’t know what to say. It couldn’t be denied,
//they’d seen with their own four eyes, that Hogwarts…
Гаррі Поттер, видається, призвичаївся був до невидимості. Вони лише на мить
побачили руку, що передала їм список. Це був дивний матеріал, не пергамент.
Гаррі пояснював був, що враховуючи все, що трапилося, він не вважав розумним
давати комусь __можливість себе знайти__, крім особливих випадків, тож він
збирався віднині спілкуватися з людьми як невидимий безтілесний голос чи як
яскраве срібне світло, що ховалося за рогом, і ніхто не бачив його джерела. Це
світло завжди могло знайти його друзів, хай як вони ховалися. Якщо чесно, нічого
моторошнішого Фред та Джордж за все своє життя не чули, а в їхньому житті був
випадок, коли вони наповнили взуття кожного слизеринця-другокласника
трансфігурованими живими багатоніжками. Фред та Джордж вважали, що це жодним
чином не може піти на користь будь-кого, та вони не знали, що сказати. Неможливо
було заперечувати, після того, як вони бачили це на власні очі, що в Гоґвортсі...

// 17257
//…wasn’t safe…
...було небезпечно...

// 17258
//“I don’t know who you went to for the False Memory Charm on Rita Skeeter,” said
//the sourceless voice of Harry Potter. “Whoever it is… probably __won’t__
//be able to fill this order directly, but they may know someone who can get
//things from the Muggle world. And - I know it may cost extra, but as few people
//as possible should know that Harry Potter is related to this.” Another flash of
//a small boy’s hand, and a bag hit the ground with the clinking noise. “Some of
//these items are expensive even in the Muggle world, and your contact may have
//to go outside Britain; but one hundred Galleons will be enough to pay for it
//all, I hope. I’d tell you where the Galleons came from, but I don’t want to
//spoil tomorrow’s surprise.”
-- Не знаю, до кого ви звернулися по чари хибної памʼяті для Ріти Скітер, --
пролунав невідомо звідки голос Гаррі Поттера. -- Хай хто це був... __навряд чи__
він зможе виконати це замовлення напряму, але він може знати когось, хто вміє
діставати речі з маґлівського світу. І... я знаю, що це коштуватиме більше, та
якомога менше людей має знати, що до цього причетний Гаррі Поттер.

Знову на мить зʼявилася рука хлопця, і сумка з дзенькотом вдарилася об підлогу.

-- Деякі з цих речей дорогі навіть у маґлівському світі, і, можливо, вашому
виконавцю доведеться покидати Британію. Але сотні ґалеонів, сподіваюся,
вистачить, щоб усе це оплатити. Я б сказав, звідки взялися гроші, але не хочу
псувати завтрашній сюрприз.

// 17259
//“What __is__ this stuff?” said Fred or George, as they looked over the
//list. “Our father is a Muggle expert -”
-- __Що__ це все таке? -- спитав Фред чи Джордж, проглядаючи список. -- Наш
батько -- експерт з маґлів...

// 17260
//“- and we don’t recognize __half__ this stuff -”
-- ...і ми все одно й __половини__ з цього не знаємо...

// 17261
//“- why, we don’t recognize any of it -”
-- ...та що там вже, ми нічого з цього не впізнаємо...

// 17262
//“- just what are you planning to __do?__”
-- ...що ж ти плануєш з цим __робити__?

// 17263
//“Things have become serious,” Harry’s voice said softly. “I don’t know what
//I’ll have to do. I may need the power of the Muggles, not just the wizards,
//before this is done - and I might need it right away, with no time to prepare.
//I’m not __planning__ to use any of this. I just want it around in case of…
//contingencies.” Harry’s voice paused. “Obviously I owe you more than I can ever
//repay and you won’t __let__ me give you __any__ of what you deserve,
//I don’t even know how to say thank you properly, and all I can do is hope that
//someday when you grow up you’ll be more sensible about this whole thing and
//would you __please__ take a ten percent commission -”
-- Усе стало серйозно, -- тихо сказав голос Гаррі. -- Я не знаю, що доведеться
робити. Мені, можливо, знадобиться сила маґлів, а не лише чарівників, доки
справу не буде зроблено. І, можливо, мені вона знадобиться одразу й не буде часу
на підготовку. Я не __планую__ використовувати нічого з цього. Я просто хочу,
щоб воно було поряд на випадок... непередбачених обставин. -- Гаррі затнувся. --
Очевидно, я винен вам більше, ніж будь-коли зможу відплатити, а ви не
__дозволите__ мені віддати вам __хоч щось__ з того, на що ви заслуговуєте. Я
навіть не знаю, як подякувати вам належним чином, можу лише сподіватися, що
колись ви подорослішаєте й станете більш розсудливими щодо цього, і, __будь
ласочка__, візьмете десять відсотків комісії...

// 17264
//“Shut up, you,” said George or Fred.
-- Ой, та замовкни, -- сказав Джордж чи Фред.

// 17265
//“For God’s sake, you went after a troll for me and Fred had his ribs broken!”
-- Та заради всього святого, ви ж атакували троля заради мене, а Фред навіть
зламав був ребра!

// 17266
//They both just shook their heads. Harry had stayed behind when they’d told him
//to run, and stepped forward to distract the troll from eating George. Harry was
//the kind of person, they knew, who’d think that something like that didn’t
//cancel out what he owed the Weasley twins, that his own deed wasn’t properly
//commensurate. But what the Weasleys knew, and Harry wouldn’t understand until
//he was older, was that it meant that nothing was owed, or ever could be owed
//between them. It was a strange kind of selfishness, they thought, that Harry
//could understand kindness within himself - never dreaming of asking of money
//from anyone he’d helped more than they’d helped him, or calling that a debt -
//while being apparently unable to conceive that others might want to act the
//same way toward __him__.
Вони лише похитали головами. Гаррі лишився, коли йому сказали тікати, зробив
крок уперед, щоб відволікти троля й той не зʼїв Джорджа. Вони знали, що Гаррі
просто був такою людиною -- він вважав, що це не скасовувало його уявного боргу
близнюкам Візлі, що його власний вчинок не був відповідним. Але Візлі знали, а
Гаррі не зрозуміє, доки не подорослішає -- це означало, що ніхто з них не був
нікому нічого винен, і не зможе бути винним. Це був дивний егоїзм, думали вони,
що Гаррі розумів доброту в собі, але йому ніколи й на думку не спадало просити
грошей в когось, кому він допоміг більше, ніж вони йому, чи називати це боргом
-- і водночас бути нездатним збагнути, що інші можуть так само діяти щодо
__нього__.

// 17267
//“Remind me to buy you a copy of the Muggle novel __Atlas Shrugged,__” the
//sourceless voice said. “I’m starting to understand what sort of person can
//benefit from reading it.”
-- Нагадайте мені купити вам маґлівську книжку "`Атлант розправив плечі`", --
сказав голос без видимого джерела. -- Я починаю розуміти, кому саме піде на
користь таке читання.

***

// 17268
//__Monday, April 20th, 7:00pm.__
__Понеділок, 19:00 20 квітня.__

// 17269
//It happened without any intervention or sign from the Head Table, as the
//students had finished their subdued dinner; it happened with no permission or
//forgiveness asked from the Professors or the Headmaster.
Це сталося без жодного втручання чи знаку з Високого столу, коли учні покінчили
з пригніченою вечерею. Сталося без дозволу чи перепрошення професорів чи
директора.

// 17270
//Shortly after the dessert dishes had appeared, a student stood up from the
//Slytherin Table and calmly made his way, not to the front of the Head Table,
//but toward the opposite side of the Four Tables of Hogwarts. A few whispers
//broke out at the sight of the white-blonde short-cropped hair, as Draco Malfoy
//stood there, silently regarding all of Hogwarts. Draco Malfoy had said almost
//nothing since his surprise return. The Slytherin had condescended neither to
//confirm nor deny that he had returned because, with Hermione Granger dead at
//his family’s hand, he no longer had anything to fear.
Невдовзі після того, як зʼявилися десертні страви, один учень підвівся з-за
слизеринського столу й спокійно пішов. Пішов не до Високого столу, а до
протилежного боку чотирьох столів Гоґвортсу. Залунав легкий шепіт, коли дехто
побачив білявого хлопця з короткою стрижкою. Драко Мелфой стояв собі, тихо
оглядаючи весь Гоґвортс. Драко Мелфой майже нічого не казав після несподіваного
повернення до школи. Слизеринець не удостоїв ані підтвердженням, ані
запереченням твердження, що він повернувся через те, що після смерті Герміони
Ґрейнджер від руки його родини, йому більше не було, чого боятися.

// 17271
//Then Draco Malfoy took up a spoon in one hand, and a glass of water in the
//other, and began tapping, producing a clear ringing sound.
Тоді Драко Мелфой взяв ложку в одну руку й склянку з водою в іншу, і почав
вистукувати -- утворився чистий звук.

// 17272
//__Ting.__
__Дзінь.__

// 17273
//__Ting.__
__Дзінь.__

// 17274
//__Ting.__
__Дзінь.__

// 17275
//It produced more excited babble at first. At the Head Table, the various
//Professors looked in puzzlement toward the Headmaster in his great chair, but
//the Headmaster gave no sign, and so the faculty did nothing.
Спочатку це спричинило лише підвищення гучності галасу. За Високим столом
різноманітні професори здивовано дивилися на директора в його великому кріслі,
та директор не подавав жодних знаків, тож викладацький склад нічого не робив.

// 17276
//Draco Malfoy continued tapping the spoon upon his glass, until the room fell
//silent, waiting.
Драко Мелфой і далі стукотів ложкою по склянці, доки кімната в очікуванні не
затихла.

// 17277
//Then another student arose from the Ravenclaw table, and made his way to where
//Draco Malfoy was standing, turning to face Hogwarts at his side. Breaths were
//drawn in surprise; those two should have been the bitterest of enemies -
Тоді інший учень підвівся з-за рейвенкловського столу й пішов туди, де стояв
Драко Мелфой, і обернувся до Гоґвортсу, коли став поряд. Почулися зойки. Ці двоє
мали б бути найзапеклішими ворогами...

// 17278
//“I, and my Father, the Lord of the Noble and Most Ancient House of Malfoy,”
//Draco Malfoy said in a clear voice, “have come to realize that there are ill
//forces at work in Hogwarts. That these ill forces, did wish Hermione Granger
//harm. That Hermione Granger was perhaps compelled, against her will, to raise
//her hand against our House; or perhaps she and I were both Memory-Charmed. We
//now say that whoever dared use the heir of Malfoy so, is the enemy of House
//Malfoy, upon whom we shall have our vengeance. And that honor be served, we
//have returned all moneys taken from House Potter, and canceled all debt.”
-- Я і мій батько, лорд шляхетного й найдавнішого роду Мелфоїв, -- чітко сказав
Драко Мелфой, -- усвідомили, що в Гоґвортсі діють лихі сили. Ці лихі сили бажали
Герміоні Ґрейнджер шкоди. Можливо, Герміону Ґрейнджер примусили проти її волі
підняти руку на наш рід. А можливо на нас обох наклали чари памʼяті. Тепер ми
заявляємо, що хай хто наважився використати спадкоємця Мелфоїв таким чином, став
ворогом роду Мелфоїв, і на нього чекає наша помста. Ми вчинили шляхетно, і
повернули всі забрані в роду Поттерів гроші, і скасували весь борг.

// 17279
//Then Harry Potter spoke. “House Potter acknowledges that it was an honest
//mistake, and holds House Malfoy no ill will. We believe and publicly say that
//House Malfoy was not at fault in Hermione Granger’s death. Whoever harmed
//Hermione Granger is the enemy of House Potter, upon whom we shall have our
//vengeance. Both of us.”
Тоді заговорив Гаррі Поттер.

-- Рід Поттерів визнає, що це була щира помилка, і не тримає на рід Мелфоїв зла.
Ми віримо й публічно заявляємо, що рід Мелфоїв не винен у смерті Герміони
Ґрейнджер. Хай хто наніс шкоду Герміоні Ґрейнджер, став ворогом роду Поттерів, і
на нього чекає наша помста. Від нас обох.

// 17280
//Then Harry Potter began to walk back to the Ravenclaw table, and the babble of
//sheer, utter, reality-crashing bewilderment began to explode -
Гаррі Поттер рушив назад до рейвенкловського столу, вибухнули теревені щирого,
цілковитого, ніби щойно розлетілася на друзки дійсність, здивування...

// 17281
//Draco Malfoy resumed tapping his spoon against his waterglass, creating a clear
//ringing chime.
Драко Мелфой знову почав стукати ложкою по склянці з водою, що звучало як чиста
нота.

// 17282
//__Ting.__
__Дзінь.__

// 17283
//__Ting.__
__Дзінь.__

// 17284
//__Ting.__
__Дзінь.__

// 17285
//And other students arose, from other tables, making their way to where Draco
//Malfoy stood, arranging themselves at his side, or behind him, or before him.
І підвелися інші учні, з інших столів, і всі вони підійшли до Драко Мелфоя,
стали поряд з ним, за ним, перед ним.

// 17286
//There was a dread silence in the Great Hall, a sense of the world shifting, of
//realigning Powers, almost tangible in the air.
У Великій Залі запанувала мертва тиша. Відчуття, ніби світ змінював напрямок,
сили трансформувалися, було таким сильним, що видавалося його можна торкнутися.

// 17287
//“My father, Owen Greengrass, with the consent and full backing of my mother,
//the Lady of the Noble and Most Ancient House of Greengrass,” Daphne Greengrass
//spoke.
-- Мій батько, Овен Ґрінґрас, за згоди й повної підтримки моєї матері, леді
шляхетного й найдревнішого роду Ґрінґрасів, -- вимовила Дафна Ґрінґрас.

// 17288
//“And my forefather, Charles, of the House of Nott,” said the former Lieutenant
//Nott, once Theodore of Chaos, now standing behind Draco Malfoy.
// @ hedrok forefather
-- І мій прабатько, Чарлз з роду Нотів, -- сказав колишній лейтенант Нот, у
минулому Теодор з Хаосу, що тепер стояв за спиною Драко Мелфоя.

// 17289
//“And my grand-aunt, Amelia, of the House of Bones, also Director of the
//Department of Magical Law Enforcement,” said Susan Bones, who stood anext
//Daphne Greengrass, beside whom she had fought.
-- І моя двоюрідна бабуся, Амелія з роду Боунзів, також директорка відділу
дотримання магічних законів, -- сказала Сьюзен Боунз, що стояла поряд з Дафною
Ґрінґрас, разом з якою вона брала участь у битвах.

// 17290
//“And my grandmother, Augusta, of the Noble and Most Ancient House of
//Longbottom,” said Neville Longbottom, who had returned for this one night.
-- І моя бабуся, Авґуста зі шляхетного й найдавнішого роду Лонґботомів, --
сказав Невіл Лонґботом, який повернувся цієї ночі.

// 17291
//“And my father, Lucius, the Lord Malfoy, of the Noble and Most Ancient House of
//Malfoy!”
-- І мій батько, Луціус, лорд Мелфой зі шляхетного й найдавнішого роду Мелфоїв!

// 17292
//“Together with Alanna Howe constituting a majority of the Hogwarts Board of
//Governors!” Daphne Greengrass said clearly. “Have, to ensure the safety of all
//students, including their own children, passed the following Educational
//Decrees upon the Hogwarts School of Witchcraft and Wizardry!”
// hedrok: "Educational Decree" -> "освітня постанова" Абабагаламага
-- Разом з Аланою Гове складаємо більшість Ради опікунів Гоґвортсу! -- ясним
голосом сказала Дафна Ґрінґрас. -- Заради безпеки всіх учнів, включно з їхніми
власними дітьми, прийняли такі освітні постанови для Гоґвортської школи чарів і
чаклунства.

***

// 17293
//“First!” Daphne said. Daphne was trying to keep her trembling under control, as
//she faced the Four Houses at the forefront of the five. There was only so far
//her parents’ lessons in speech-making could take her. Daphne’s eyes darted down
//quickly to her hand, upon which, written with a quill in faint red ink, cues to
//her lines had been written. “Students are not to go anywhere alone, not even to
//the toilets! You will travel in groups of at least three, and every group must
//have a sixth-year or seventh-year student!”
-- Перше! -- сказала Дафна. Вона старалася вгамувати тремтіння перед лицем
чотирьох гуртожитків попереду пʼятірки. Уроки промов від її батьків допомагали,
але їх явно було замало. Вона швидко кинула оком на руку, де бляклим червоним
були написані підказки. -- Учням заборонено ходити самим, навіть у туалети! Всі
пересуватимуться групами принаймні по троє, і в кожній групі має бути
шестикласник або семикласник!

// 17294
//“Second!” Susan Bones said from behind her, voice almost firm. “To further
//ensure the students’ safety, nine Aurors have been dispatched to Hogwarts to
//form an Auxiliary Protective Force!” Susan took a small, round glass object
//from within her robes, one of the communicators that the DMLE used, which
//they’d all been given. Susan raised it to her mouth and said, her voice now
//higher, “Auror Brodski, this is Susan Bones. __Enter!__”
-- Друге! -- почула вона з-за спини майже твердий голос Сьюзен Бонз. -- Заради
забезпечення безпеки учнів, девʼятьох аврорів відправили до Гоґвортсу, щоб
утворити додатковий захисний загін! -- Сьюзен дістала з мантії невеличку скляну
річ -- один з комунікаторів, які використовували у ВДМЗ, кожному з них такий
дали. Сьюзен піднесла його до губ і сказала, тепер гучніше: -- Авроре Бродскі,
це Сьюзен Боунз. __Заходьте!__

// 17295
//The doors to the Hall slammed open, and in marched nine Aurors in the
//reinforced leather gear they used when on duty. At once they spread out, two
//Aurors taking up station by each of the four tables, and the last took up watch
//at the Head Table. There were more gasps.
Двері до Зали розчахнулися, і всередину увійшли маршем девʼять аврорів у міцних
шкіряних обладунках, які вони використовували на службі. Більше зойків.

// 17296
//“Third!” said Draco Malfoy, his voice commanding. Malfoy had apparently
//memorized his own lines, since there was nothing written on his hand that
//Daphne could see. “In the face of a common enemy who does not balk at killing
//students from any House, the four Houses of Hogwarts must come together and act
//as one! To emphasize this, the House Points system is temporarily suspended!
//__All__ Professors will encourage solidarity between Houses, by decree of
//the Hogwarts Board of Governors!”
-- Третє! -- сказав Драко Мелфой командним голосом. Видається, він запамʼятав
текст, бо, наскільки бачила Дафна, на його руках нічого не було написано. --
Перед лицем спільного ворога, який не цурається вбивати учнів з будь-якого
гуртожитку, всі чотири гуртожитки Гоґвортсу мають діяти разом, ніби один! Щоб
підкреслити це, система очок гуртожитків тимчасово зупинена! __Усі__ професори
заохочуватимуть єдність між гуртожитками, згідно з освітньою постановою Ради
опікунів Гоґвортсу.

// 17297
//“Fourth!” recited Neville Longbottom. “All students not already in the Defense
//Professor’s after-school classes, will receive special training in self-defense
//by Auror instructors!”
-- Четверте! -- декламував Невіл Лонґботом. -- Усі учні, що не брали участі у
факультативних заняттях професора із захисту, отримають спеціальне тренування із
самозахисту від інструкторів-аврорів!

// 17298
//“Fifth!” Theodore Nott yelled in a menacing tone. “All fighting in the
//corridors or anywhere outside of Defense lessons will be dealt with severely!
//Fight together or don’t fight at all!”
-- Пʼяте! -- загрозливо загорланив Теодор Нот. -- Будь-які бійки в коридорах чи
будь-де поза межами занять із захисту будуть суворо покарані! Або бийтеся разом,
або не бийтеся зовсім!

// 17299
//“Sixth!” said Daphne Greengrass, and took a deep breath. When she’d found out
//what was planned, she’d made her own little extra request to Mother through the
//Floo. Even with Lucius Malfoy going along with Amelia Bones - a thought her
//mind was still having trouble grasping - the Greengrass swing vote had still
//been vital, since Jugson and his own faction had refused to back Malfoy. Not to
//mention that Bones didn’t trust Malfoy, and Malfoy didn’t trust Bones. So
//Mother had demanded, and the Greengrasses had received - “Since Memory Charms
//have been used on students without setting off wards, it is possible that
//someone on the Hogwarts faculty may be implicated. Therefore! The Auxiliary
//Protective force reports directly to my father, Lord Greengrass!” And this part
//was only symbolic, she knew, there’d be no reason anyone wouldn’t just contact
//the Aurors directly; but it might turn into more, someday, which was why she’d
//asked Mother to demand it - “And if anyone wants to report something to the
//Auxiliary Protectors, they can talk to the Aurors, or go through __me__ -”
//Daphne’s arm swept behind her to indicate the gathered students. “The duly
//appointed President of the Auxiliary Protective Special Committee!”
-- Шосте! -- сказала Дафна Ґрінґрас і глибоко вдихнула. Коли вона дізналася
була, що планувалося, вона зробила власний невеличкий запит до матері за
допомогою флу. Навіть якщо Луціус Мелфой робив щось спільно з Амелією Боунз --
думка, яку її мозок досі не міг сприйняти, -- голос Ґрінґрасів досі був
вирішальним, бо Джаґсон і його фракція відмовилися підтримати Мелфоя. Не
згадуючи вже, що Боунз не довіряла Мелфою, а Мелфой не довіряв Боунз. Тож матір
вимагала була, і її вимоги задовольнили: -- Позаяк на учнях застосовували чари
памʼяті, не здійнявши тривоги, у цьому міг брати участь хтось з викладацького
складу Гоґвортсу. Отже! Додатковий захисний загін звітує напряму моєму батькові,
лордові Ґрінґрас! -- вона знала, ця частина була символічною, не було жодної
причини комусь просто не звʼязатися з аврорами напряму, та колись це могло
перетворитися на щось більше -- ось чому вона попросила матір вимагати цього: --
І якщо хтось хоче повідомити щось додатковим захисникам, він чи вона можуть
розповісти про це аврорам або __мені__... -- Дафна рукою означила учнів навколо
себе: -- Належним чином призначеному президентові спеціального додаткового
комітету захисту!

// 17300
//And Daphne paused dramatically. They’d all rehearsed this part.
Дафна зробила драматичну паузу. Цю частину вони разом репетирували.

// 17301
//“We don’t know who the enemy is,” said Neville, whose voice did not squeak.
-- Ми не знаємо, хто наш ворог, -- сказав Невіл, і його голос жодним чином не
нагадував писк.

// 17302
//“We don’t know what the enemy wants,” said Theodore, still looking menacing.
-- Ми не знаємо, чого хоче наш ворог, -- сказав Теодор, що досі мав загрозливий
вигляд.

// 17303
//“But we know who the enemy is attacking,” said Susan, as fierce as when she’d
//taken on three seventh-year students.
-- Та ми знаємо, на кого ворог нападає, -- сказала Сьюзен, не менш люто, ніж
коли вона перемогла трьох семикласників.

// 17304
//“The enemy is attacking Hogwarts students,” said Draco Malfoy, clear and
//commanding, like all this was his natural element.
-- Ворог атакує учнів Гоґвортсу, -- сказав Драко Мелфой, ясним та командним
голосом, ніби все це було для нього буденним.

// 17305
//“And Hogwarts,” spoke Daphne of Greengrass, feeling her blood burn like it
//never had before in her life, “is going to __fight back.”__
-- І Гоґвортс, -- сказала Дафна з Ґрінґрасів, вона відчувала, що її кров кипить,
як ніколи в житті, -- __дасть бій__.
