// 17308
//== Precautionary Measures, Pt 1
== Розділ 100. Запобіжні заходи, ч.1

// 17309
//__May 13th, 1992.__
__13 травня 1992.__

// 17310
//Argus Filch’s face appeared twisted in the light of the oil lamp he held,
//shadows dancing over his face. Behind them the doors of Hogwarts quickly
//receded, and the dark grounds moved closer. The track they now walked was muddy
//and indistinct.
Обличчя Арґуса Філча видавалося викривленим у світлі гасової лампи в його руках,
тіні танцювали його лицем. Від них швидко віддалялися двері Гоґвортсу, а темні
землі швидко насувалися. Стежка, якою вони йшли, була брудна й ледь помітна.

// 17311
//The trees, branches formerly bare with winter, were not yet fully clad with
//spring; their branches stretched up toward the sky like lean fingers, skeletons
//visible amid the thin foliage. The moon was bright, but clouds scudding across
//it often threw them into darkness, lit only by the dim flames of Filch’s lamp.
Дерева, їхні гілки ще нещодавно голі взимку, ще не повністю вдягнулися протягом
весни. Гілки тяглися до неба, ніби худі пальці, ніби скелети на тлі листяного
орнаменту. Місяць яскраво сяяв, проте гнані вітром хмари часто занурювали їх у
темряву, єдиним джерелом світла в якій було тьмяне полумʼя лампи Філча.

// 17312
//Draco kept a firm grip on his wand.
Драко міцно стискав паличку.

// 17313
//“Where are you taking us?” said Tracey Davis. She’d been caught along with
//Draco by Filch, on their way to an attempted meeting of the Silvery Slytherins
//after curfew hours, and likewise given a detention.
-- Куди ви нас ведете? -- спитала Трейсі Девіс.

Її разом з Драко впіймав Філч, коли вони намагалися нишком пройти на перше
зібрання срібних слизеринців протягом комендантської години, і їй теж призначили
покарання.

// 17314
//“You just follow me,” said Argus Filch.
-- Просто йдіть за мною, -- кинув Арґус Філч.

// 17315
//Draco was feeling rather annoyed with the whole affair. The Silvery Slytherins
//ought to be recognized school business. There was no reason why a secret
//conspiracy shouldn’t have permission to meet after curfew, if it was for the
//greater good of Hogwarts. If this happened one more time he’d talk to Daphne
//Greengrass and Daphne would talk to her father and then Filch would learn the
//wisdom of looking the other way where Malfoys were concerned.
Драко відчував чимале роздратування через всю цю справу. Срібні слизеринці мали
б бути визнаним шкільним угрупуванням. Не було жодної причини, чому таємні
змовники не мали б отримати дозвіл зустрічатися протягом комендантської
години, якщо це було заради блага Гоґвортсу. Якщо таке станеться ще раз, треба
буде поговорити з Дафною Ґрінґрас, Дафна поговорить зі своїм батьком, і Філч
навчиться мудрості -- знатиме, що варто дивитися в інший бік, коли йдеться про
Мелфоїв.

// 17316
//The lights of the Hogwarts castle had diminished in the distance when Filch
//spoke again. “I bet you’ll think twice about breaking a school rule again,
//won’t you, eh?” Filch turned his head, away from the lamp, so that he could
//leer at the four students following him. “Oh yes… hard work and pain are the
//best teachers if you ask me… It’s just a pity they let the old punishments die
//out… hang you by your wrists from the ceiling for a few days, I’ve got the
//chains still in my office, keep ‘em well oiled in case they’re ever needed…”
Світло замку Гоґвортс вже навіть не вгадувалося, коли Філч знову заговорив.

-- Закладаюся, ви двічі подумаєте перед тим, як порушити шкільні правила знову,
га? -- Філч відвернувся від лампи, щоб злісно поглянути на чотирьох учнів, що
йшли за ним. -- О так... важка праця й біль -- найліпші вчителі, як на мене...
Прикро, що старі добрі покарання забулися... підвісити б вас за кісточки до
стелі на кілька днів, ланцюги досі в моєму кабінеті, я їх добре змащую -- раптом
стануть в пригоді...

// 17317
//“Hey!” Tracey said, a touch of indignation entering her voice. “I’m too young
//to hear about that - that sort of - you know! Especially if the chains are
//well-oiled!”
-- Ей! -- не без обурення вигукнула Трейсі. -- Я замолода, щоб слухати про...
таке... ну ви зрозуміли! Особливо про добре змащені ланцюги!

// 17318
//Draco wasn’t paying attention. Filch simply wasn’t in Amycus Carrow’s league.
Драко не зважав. Філч просто не дотягував до Амікуса Керроу.

// 17319
//Behind them, one of the two older Slytherins following them snickered, though
//she didn’t say anything. Beside her was the other, a tall boy with an Slavic
//cast to his face, and who still spoke with an accent. They’d been caught for
//some unrelated offense, having to do with the type of thing Tracey went on
//about, and looked to be in their third or fourth year. “Pfeh,” said the taller
//boy. “In Durmstrang they hang you upside-down by your toes. By one toe, if you
//are insolent. Hogwarts was soft even in the old days.”
За ними, одна з двох старших слизеринців давилася зі сміху, хоча не зронила ані
слова. Поряд з нею був інший, високий хлопець словʼянської зовнішності, він досі
розмовляв з акцентом. Їх впіймали за якимось не повʼязаним порушенням, що було з
тієї ж теми, про яку Трейсі стверджувала, що їй зарано слухати. Вони були чи то
в третьому, чи то в четвертому класі.

-- Пха, -- сказав високий хлопець. -- У Дурмстенґу людей підвішують догори дриґом
за великі пальці. Чи за один, якщо зробив щось зовсім зухвале. Гоґвортс нині
зовсім розмʼякнув.

// 17320
//Argus Filch was silent for around half a minute, as though trying to think of a
//proper rejoinder, and then gave a chuckle. “We’ll see what you say about that…
//when you learn what you’ll be doing tonight! Ha!”
Арґус Філч мовчав десь з півхвилини, ніби обмірковував, що на це можна
відповісти, а тоді хихикнув.

-- Побачимо, що ти заспіваєш, коли дізнаєшся, що робитимеш сьогодні вночі! Ха!

// 17321
//“I __said,__ I’m too young for that sort of thing!” said Tracey Davis. “It
//has to wait until I’m older!”
-- Я __ж сказала__, що замолода для такого! -- втрутилася Трейсі Девіс. -- Треба
почекати, доки я подорослішаю.

// 17322
//Ahead of them was a cottage with lighted windows, though the proportions seemed
//wrong.
Попереду них була хатинка, у її вікнах горіло світло, хоча пропорції видавалися
неправильними.

// 17323
//Filch whistled, a high sharp sound, and a dog began barking.
Філч засвистів -- високий різкий звук, і собака почав гавкати.

// 17324
//From the cottage stepped forth a figure, making the trees seem too short around
//it. The figure was followed by a dog that seemed like a puppy by comparison,
//until you looked at it apart from the taller silhouette and realized the dog
//was huge, more like a wolf.
Із хатини вийшла людина, через яку дерева навколо видавалися занизькими. Слідом
за ним біг собака, що в порівнянні видавався цуциком, але варто було розгледіти
його окремо від високого силуету -- ти усвідомлював, що собака величезний, десь
розміром з вовка.

// 17325
//Draco’s eyes narrowed, before he caught himself. As a Silvery Slytherin he
//wasn’t supposed to be Prejudiced against any sentient being, especially not
//where other people might see him.
Драко примружив очі, а тоді спинив себе. Як срібний слизеринець, він не мав бути
упередженим щодо жодної розумної істоти, особливо коли його міг хтось побачити.

// 17326
//“What’s this?” said the figure, in the loud gruff voice of the half-giant. His
//umbrella lit up with a white glow, brighter than Filch’s dim lamp. In his other
//hand he held a crossbow; a quiver of short bolts was strapped to his upper arm.
//! 11%
-- Що це таке? -- спитала людина гучним грубим голосом напіввелетня.

Його парасолька світилася білим -- значно яскравіше за тьмяну лампу Філча. В
іншій руці він тримав арбалет, сагайдак коротких стріл був у нього на плечі.

// 17327
//“Students serving detention,” Filch said, loudly. “They’re to help you search
//the Forest for… whatever’s been eating ‘em.”
-- Учні на покарання, -- гучно сказав Філч. -- Вони допоможуть тобі в пошуках у
Лісі того... хай що там їх хрумкало.

// 17328
//“The __Forest?__” gasped Tracey. “We can’t go in there at night!”
-- У __Лісі__ -- вигукнула Трейсі. -- Нам туди не можна вночі!

// 17329
//“That’s right,” said Filch, turning from Hagrid to glare at them. “It’s into
//the Forest you’re going, and I’m much mistaken if you’ll all come out in one
//piece.”
-- Саме так, -- сказав Філч, відвернувшись від Геґріда, щоб зиркнути на них. --
Ви йдете у Ліс, і, якщо я не помиляюся, повернетеся звідти не одним шматком.

// 17330
//“But -” said Tracey. “There’s werewolves, I’ve heard, __and__ vampires,
//and everyone knows what happens when there’s a girl and a werewolf and a
//vampire all at the same time!”
-- Але... -- почала Трейсі. -- Там вовкулаки, як я чула, __і__ вампіри, а всі
знають, що трапляється, коли дівчина, вовкулака й вампір опиняються в одному
місці!

// 17331
//The huge half-giant was frowning. “Argus, I ‘ad in mind you an’ maybe a few
//seventh-years. ‘Ere’s not much point in bringing along help if I’m to watch
//over ‘em the whole time.”
Гігантський напіввелетень спохмурнів.

-- Арґусе, я ж просив кількох семиклашок. Нащо приводити підмогу, за якою я маю
си дивити весь час?

// 17332
//Argus’s face lit with cruel satisfaction. “That’s their lookout, isn’t it?
//Should’ve thought of them werewolves before they got in trouble, shouldn’t
//they? Send them out alone. I shouldn’t be too friendly to them, Hagrid. They’re
//here to be punished, after all.”
Лице Арґуса осяяло жорстоке задоволення.

-- Це їхня справа, хіба ж ні? Мали б думати про вовкулак перед тим, як вскочити
в халепу, хіба ні? Відправляй їх самих. І не будь надто дружнім з ними, Геґріде.
Зрештою, вони тут заради покарання.

// 17333
//The half-giant gave a massive sigh (it sounded like a normal man having all the
//air driven out of his lungs by a Bludgeoning Hex). “Yeh’ve done yer bit. I’ll
//take over from here.”
Напіввелетень гучно зітхнув (звук скидався на те, як з легень нормальної людини
виходить все повітря через бладжерівський проклін).

-- Ти своє зробив. Далі я їх поведу.

// 17334
//“I’ll be back at dawn,” said Filch, “for what’s left of them,” he added
//nastily, and he turned and started back toward the castle, his lamp bobbing
//away in the darkness.
-- Я повернуся на світанку, -- сказав Філч, -- за тим, що від них залишиться, --
гидко додав він, і рушив до замку, його лампа підстрибувала в темряві.

// 17335
//“Right then,” said Hagrid, “now, listen carefully, ‘cause it’s dangerous what
//we’re gonna do tonight an’ I don’ want no one takin’ risks. Follow me over here
//a moment.”
-- Гараздоньки, -- сказав Геґрід, -- тепер слухайте уважно, бо те, що ми
робитимемо сьогодні небезпечно, і я не хочу, щоб ви ризикували. Йдіть сюди на
хвильку.

// 17336
//He led them to the very edge of the Forest. Holding his lamp up high he pointed
//down a narrow, winding earth track that disappeared into the thick black trees.
//A light breeze blew over Draco’s head as he looked into the Forest.
Він підвів їх до самого краю Лісу. Він тримав свою лампу високо, і вказав нею на
вузьку звивисту стежку, що зникала в гущині дерев. Легкий вітерець дмухнув в
обличчя Драко, коли той дивився на Ліс.

// 17337
//“There’s summat in there that’s bin eatin’ unicorns,” the huge man said.
-- Шось там їсть єдинорогів, -- сказав величезний чоловік.

// 17338
//Draco nodded; he distantly remembered hearing something along those lines a
//couple of weeks ago, toward the end of April.
Драко кивнув. Він неясно памʼятав, що кілька тижнів тому, ближче до кінця
квітня, чув щось таке.

// 17339
//“Did you call us to track down a trail of silvery blood to a wounded unicorn?”
//Tracey said excitedly.
-- Ви покликали нас, щоб йти слідом срібної крові пораненого єдинорога? --
схвильовано спитала Трейсі.

// 17340
//“No,” said Draco, though he managed to stop the reflexive sneer. “Filch gave us
//the detention note at lunch today, at noon. Mr. Hagrid wouldn’t wait that long
//to find a wounded unicorn, and if we were looking for something like that, we’d
//look in the day when it’s bright. So,” Draco held up a finger, like he’d seen
//Inspector León do in plays, “I infer that we’re looking for something that only
//comes out at night.”
// hedrok @ Inspector León
-- Ні, -- сказав Драко, хоча він впорався стримати майже рефлекторну глузливу
насмішку. -- Філч призначив нам покарання сьогодні в обід. Містер Геґрід не
чекав би так довго, щоб знайти раненого єдинорога, і якби ми шукали щось таке,
ми б шукали, доки стоїть ясний день. Отже, -- Драко підвів палець, як, він
бачив, робив Інспектор Леон у пʼєсах, -- з цього випливає, що ми шукаємо щось,
що виходить лише вночі.

// 17341
//“Aye,” said the half-giant, sounding thoughtful. “Yer not what I expected,
//Draco Malfoy. Not what I expected at all. An’ you’d be Tracey Davis, then. I’ve
//heard of yeh. One of poor Miss Granger’s lot.” Rubeus Hagrid looked over at the
//two older Slytherins, peering at them in the light of his glowing umbrella.
//“An’ who’d yeh be, again? Don’t remember seeing much of yeh, boy.”
-- Ага, -- задумливо сказав напіввелетень. -- Ти не такий, як я чекав, Драко
Мелфой. Зовсім не такий. А ти в нас Трейсі Девіс, виходить. Я чув про вас. Одна
зі зграї бідолашної міс Ґрейнджер, -- Рубеус Геґрід перевів погляд на двох
старших слизеринців, почав розглядати їх у яскравому світлі парасольки. -- А ви
хто такі, га? Шось не памʼятаю, щоб я тебе бачив, хлопче.

// 17342
//“Cornelia Walt,” said the witch, “and this is Yuri Yuliy,” indicating the
//Slavic-looking boy who’d spoken of Durmstrang. “His family is visiting from the
//Ukrainian lands, so he’s in Hogwarts just for the year.” The older boy nodded,
//a faintly contemptuous cast on his face.
-- Корнелія Волт, -- відрекомендувалася відьма, -- а це Юрій Юлій, -- вона
вказала на хлопця зі словʼянською зовнішністю, що згадував Дурмстренґ. -- Його
родина приїхала з українських земель, тож він у Гоґвортсі лише на рік.

Старший хлопець кивнув, на його лиці майнула зарозумілість.

// 17343
//“This is Fang,” Hagrid said, indicating the dog.
-- Це Іклань, -- Геґрід вказав на пса.

// 17344
//The five of them set off into the woods.
Вони впʼятьох пішли в ліс.

// 17345
//“What could be killing unicorns?” Draco said after they’d walked for a few
//minutes. Draco knew a bit about Dark creatures, but he couldn’t remember
//anything that was said to prey on unicorns. “What sort of creature does that,
//does anyone know?”
-- Що здатне вбити єдинорога? -- спитав Драко після кількох хвилин ходьби.
Драко дещо знав про темних істот, проте не міг згадати нічого, що полювало б
на єдинорогів. -- Які істоти це роблять, хтось знає?

// 17346
//“Werewolves!” said Tracey.
//! 22%
-- Вовкулаки! -- сказала Трейсі.

// 17347
//“Miss Davis?” Draco said, and when she looked at him, he silently pointed a
//finger up at the moon. It was waxing gibbous, but not yet full.
-- Міс Девіс? -- сказав Драко. Коли вона поглянула на нього, він мовчки вказав
пальцем на місяць. Він був сильно випуклим, проте не повним.

// 17348
//“Oh, right,” said Tracey.
-- А, точно, -- сказала Трейсі.

// 17349
//“No weres in the Forest,” said Hagrid. “They’re plain wizards most o’ the time,
//‘member. Couldn’t be wolves either, they’re not near fast enough ter catch a
//unicorn. Powerful magical creatures, unicorns are, I never knew one ter be hurt
//before.”
-- Жодних вовкулаків у Лісі, -- сказав Геґрід. -- Вони ж звичайні чарівники
переважно, не забувайте. Це не можуть бути й вовки, вони не такі швидкі, шоб
спіймати єдинорога. Могутні магічні створіння -- ті єдинороги, ніколи раніше не
чув, щоб когось з них хоч поранили.

// 17350
//Draco listened to this, thinking about the puzzle almost despite himself. “Then
//what __is__ fast enough to catch a unicorn?”
Драко вислухав це й почав обмірковувати загадку майже проти власної волі.

-- Тоді __що__ достатньо швидке, щоб впіймати єдинорога?

// 17351
//“Wouldn’t ‘ave been a matter of speed,” Hagrid said, giving Draco an
//indecipherable glance. “Ere’s no end ter the ways that creatures hunt. Poison,
//darkness, traps. Imps as can’t be seen or heard or remembered, even while
//they’re eatin’ yer face. Always summat new an’ wonderful to learn.”
-- Річ не в швидкості, -- сказав Геґрід, незрозуміло поглянувши на Драко. --
Нема кінця способам, в які полюють звірі. Отрута, темрява, пастки. Навіть такі,
що їх не можна ані почути, ані запамʼятати, доки вони їдять твою голову. Завжди
є шось нове й чудове, що можна від них дізнатися.

// 17352
//A cloud passed over the moon, casting the forest into shadow lit only by the
//glow of Hagrid’s umbrella.
Хмара закрила місяць, і темряву лісу розвіювало єдине джерело освітлення --
Геґрідова парасолька.

// 17353
//“Meself,” Hagrid continued, “I think we might ‘ave a Parisian hydra on our
//‘ands. They’re no threat to a wizard, yeh’ve just got to keep holdin’ ‘em off
//long enough, and there’s no way yeh can lose. I mean literally no way yeh can
//lose so long’s yeh keep fightin’. Trouble is, against a Parisian hydra, most
//creatures give up long before. Takes a while to cut down all the heads, yeh
//see.”
// hedrok: https://en.wikipedia.org/wiki/Goodstein%27s_theorem
//         https://uk.wikipedia.org/wiki/Теорема_Гудштейна
// @wiki доповнити українську статтю.
-- Сам-то я, -- провадив Геґрід, -- гадаю, шо в нас си завела гідра Паріса.
Вони безпечні для чарівників -- треба лиш достатньо довго з ними битися, ніяк не
програєш. Тобто буквально не програєш, якщо й далі си битимеш. Проблема з гідрою
Паріса в тому, що більшість істот здаються задовго до того. Бачите, дуже довго
це -- відрубати їй усі голови.

// 17354
//“Bah,” said the foreign boy. “In Durmstrang we learn to fight Buchholz hydra.
//Unimaginably more tedious to fight! I mean literally, cannot imagine.
//First-years not believe us when we tell them winning is possible! Instructor
//must give second order, iterate until they comprehend.”
// hedrok @ Buchholz hydra Треба якось розібратися, що саме мається на увазі.
-- Та, -- сказав іноземний хлопець. -- У Дурстренґу нас вчать битися з гідрою
Бухголза. Неуявно складніше битися! Тобто буквально, це неможливо уявити.
Першокласники не вірять, коли їм кажеш, що перемога можлива! Інструктору
доводиться давати другий наказ і повторювати, доки вони не зрозуміють.

// 17355
//They walked for nearly half an hour, deeper and deeper into the Forest, until
//the path became almost impossible to follow because the trees were so thick.
Вони йшли приблизно півгодини -- дедалі глибше в Ліс, доки шлях стало майже не
видно через гущавину дерев.

// 17356
//Then Draco saw it, thick splashes on the roots of trees, gleaming a brighter
//color beneath the moonlight. “Is that -”
А тоді Драко побачив це -- великі плями на корінні дерев, що сяяли яскравіше під
місяцем.

-- Це...

// 17357
//“Unicorn’s blood,” Hagrid said. The huge man’s voice was sad.
-- Кров єдинорога, -- сказав Геґрід із сумом.

// 17358
//In a clearing ahead, visible through the tangled branches of a great oak, they
//saw the fallen creature, splayed beautiful and sad upon the ground, the dirt
//around her shining moon-silver with pooled blood. The unicorn was not white,
//but pale blue, or appearing so beneath the moon and night sky. Her slender legs
//stuck out at odd angles, obviously broken, and her mane spread across the dark
//leaves, green-black but with a sheen like pearls. On her flank was a small
//white shape like a starburst, a center surrounded by eight straight rays. Half
//her side had been ripped away, the edges ragged like the marks of teeth, bones
//and inner organs exposed.
// hedrok: @ з єдинорогом Елізер явно щось має на увазі. (про starburst)
Попереду була галявина, її було видно крізь заплутані гілки величезного дуба,
вони побачили полегле створіння, що красиво й сумно розпласталося на землі.
Навколо неї сяяла сріблом місяця калюжа крові. Єдиноріг була не білою, а
блідо-синьою, чи принаймні здавалася такою під місяцем та нічним небом. Її
стрункі ноги стирчали  під дивними кутами -- явно зламані, а її грива лежала на
темному листі, чорно-зеленому, але з відблисками перлин. На її боці була
невеличка біла пляма у формі вибуху зірки -- від центру йшли вісім прямих
променів. Половину її боку було відірвано, краї були рваними, було схоже на
відбиток зубів. Було видно кістки й внутрішні органи.

// 17359
//A strange choking sensation rose in Draco’s throat.
У Драко зʼявилося дивне відчуття, ніби йому бракує повітря.

// 17360
//“That’s ‘er,” Hagrid said, his sad whisper as loud as a normal man’s voice.
//“Just where I found ‘er this mornin’, dead as a dead doorknob. She is - was -
//the first unicorn I e’er met in these woods. I called ‘er Alicorn, not that it
//matters ter ‘er any more, I s’pose.”
-- Оце вона, -- сказав Герґрід. Сумний шепіт, не тихіший за звичайний голос
нормальної людини. -- Саме тут я знайшов її зрання, мертву, мов мертва дверна
ручка. Вона... була... першим єдинорогом, яку я зустрів у цих лісах. Назвав її
Алікорна, хоча, певно, це вже не має значення...

// 17361
//“You named a unicorn Alicorn,” said the older girl. Her voice was a bit dry.
-- Ви назвали єдинорога Алікорна, -- дещо сухим голосом сказала старша дівчина.

// 17362
//“But she doesn’t have wings,” Tracey said.
-- Але ж у неї немає крил, -- сказала Трейсі.

// 17363
//“An alicorn’s a unicorn’s horn,” Hagrid said, now louder. “Don’t know where yeh
//all started thinking it meant a unicorn with wings, ‘ere’s no such thing I ever
//heard. It’s just like naming a dog Fang,” indicating the huge wolf-like dog
//that barely came to his knees. “What’d you have called ‘er? Hannah, or some
//such? I gave ‘er a name as would’ve meant summat ter __‘er.__ Common
//courtesy, I call it.”
-- Алікорн -- це ріг єдинорога, -- тепер гучніше сказав Геґрід. -- Не знаю,
чого всі почали думати, ніби це означає єдинорога з крилами. Таких ніц немає.
Насправді це все одно, що назвати пса Іклань, -- він вказав на величезного,
схожого на вовка собаку, що ледве сягав його колін. -- А як ви б її назвали?
Ганна чи щось таке?  Я дав їй імʼя, що шось для __неї__ б важило. Проста
ввічливість, от і все.

// 17364
//Nobody said anything to this, and after a further moment, the huge man gave a
//sharp nod. “We’ll start our search from ‘ere, the last place it struck. We’re
//gonna split inter two parties an’ follow the trail in diff’rent directions. Yeh
//two, Walt and Yuliy - yeh’ll go that way, and take Fang. There’s nothin’ that
//lives in the Forest that’ll hurt yeh if yer with Fang. Send up green sparks if
//yeh find summat interestin’, an’ send up red sparks if anyone gets in trouble.
//Davis, Malfoy, with me.”
//! 33%
Ніхто на це нічого не відповів, і за якийсь час величезний чоловік різко кивнув.

-- Почнімо пошук звідсіля -- з останнього місця, де воно вдарило. Розділимося на
дві групи та підемо слідом в двох різних напрямках. Ви двоє -- Волт та Юлій --
підете туди, візьміть Ікланя. Ніщо не нашкодить, коли з вами Іклань. Запаліть
зелені іскри, якщо знайшли шось цікаве, і червоне, якщо потрапили в біду. Девіс,
Мелфой -- зі мною.

// 17365
//The Forest was black and silent. Rubeus Hagrid had dimmed the light of his
//umbrella after they’d set out, so that Draco and Tracey had to steer themselves
//by the light of the moon, not without occasional trips and falls. They walked
//past a mossy tree-stump, the sound of running water speaking of a stream
//somewhere close by. Now and then a ray of moonlight through the branches above
//lit a spot of silver blue blood on the fallen leaves; they were following the
//trail of blood, toward where the creature must have first struck the unicorn.
Ліс був чорний та тихий. Рубеус Геґрід притлумив світло своєї парасольки,
коли вони вирушили втрьох, тож Драко й Трейсі доводилося прокладати шлях під
місячним сяйвом, не без кількох падінь. Вони пройшли повз оповитий мохом пень,
дзюрчання свідчило про те, що десь поряд був струмок. Подеколи місячне проміння
пробивалося крізь гілля й освітлювало плями срібно-блакитної крові на палому листі.
Вони йшли слідом крові, до створіння, що напало на єдинорога.

// 17366
//“There’s rumors about yeh,” Hagrid said in a low voice after they’d walked for
//a while.
-- Про тебе ходять чутки, -- по деякому часі сказав Геґрід низьким голосом.

// 17367
//“Well, they’re all true,” Tracey said. __“All__ of them.”
-- Ну, усі вони правдиві, -- сказала Трейсі. -- __Усі__.

// 17368
//“Not yeh,” Hagrid said. “Did yeh really testify under Veritaserum that yeh
//tried to help Miss Granger, three times it was?”
-- Та не про тебе, -- сказав Геґрід. -- Ти й справді свідчив під сироваткою
правди, шо ти хтів допомогти міс Ґрейнджер три рази?

// 17369
//Draco weighed his words for a while, and finally said, “Yes.” It wouldn’t have
//done to appear too eager to claim credit.
Драко деякий час зважував слова, і нарешті сказав:

-- Так.

Якби видавалося, що він охоче цим вихваляється, це лише б зашкодило.

// 17370
//The huge man shook his head, his great feet still stomping silently through the
//woods. “I’m surprised, teh be honest. And yeh too, Davis, tryin’ to put the
//halls in order. Are yeh sure the Sorting Hat put yeh in the right place?
//There’s not a single witch or wizard who went bad who wasn’t in Slytherin, so
//it’s always been said.”
Величезний чоловік похитав головою, його гігантські ноги й далі тихо гупали
лісом.

// hedrok: Останнє речення - канон.
-- Якщо чесно, я здивований. І тобою теж, Девіс, ти ж хотіла навести лад у
коридорах. Ви певні, що Сортувальний Капелюх відправив вас, куди треба? Усі лихі
чаклуни та відьми були в Слизерині, завжди так казали.

// 17371
//“That’s not true,” Tracey said. “What about Xiaonan Tong the Black Raven,
//Spencer of the Hill, and Mister Kayvon?”
// hedrok щось нікого не знайшов:
//        @ Xiaonan Tong the Black Raven
//        @ Spencer of the Hill
//        @ mister Kayvon
-- Це неправда, -- сказала Трейсі. -- А як щодо Чорного Крука Ксіонана Тонґа,
Спенсена з Пагорба чи містера Кейвона?

// 17372
//“Who?” said Hagrid.
-- Кого? -- перепитав Геґрід.

// 17373
//“Just some of the best Dark Wizards from the last two centuries,” Tracey said.
//“They’re probably __the__ best from Hogwarts who weren’t from Slytherin.”
//Her voice fell, lost its enthusiasm. “Miss Granger always told me I should read
//up on anything I -”
-- Та просто кілька найкращих чорних чаклунів останніх двох століть, -- сказала
Трейсі. -- Напевно, вони __най__кращі з Гоґвортсу, хто не був у Слизерині.

Раптом її голос притих, з нього зникнув увесь ентузіазм:

-- Міс Ґрейнджер казала мені, що треба читати все, що я...

// 17374
//__“Anyway,” __Draco said quickly, “that’s not really relevant, Mr. Hagrid.
//Even if -” Draco worked it around in his head, trying to translate the
//difference between __probability of Slytherin given Dark __and
//__probability of Dark given Slytherin__ into nonscientific language. “Even
//if most Dark Wizards are from Slytherin, very few Slytherins are Dark Wizards.
//There aren’t all that many Dark Wizards, so not all Slytherins can be one.” Or
//as Father had said, while any Malfoy should certainly know much of the secret
//lore, the more… __costly__ rituals were better left to useful fools like
//Amycus Carrow.
-- __Хай там як__, -- швидко сказав Драко. -- це насправді неважливо,
містере Геґрід. Навіть якби... -- Драко прокрутив подальші слова в голові, щоб
перекласти різницю між "`імовірністю потрапити в Слизерин за умови чорного
чаклуна`" і "`імовірністю чорного чаклуна за умови слизеринця`" ненауковою
мовою. -- Навіть якщо більшість чорних чарівників зі Слизерину, дуже мало
слизеринців -- чорні чаклуни. Існує не так вже й багато чорних чарівників, тож
не кожен слизеринець таким стає.

Чи, як казав батько, хоч Мелфої безперечно зібрали чимало таємного вчення,
більш... __затратні__ ритуали ліпше залишати корисним дурням на кшталт Амікуса
Керроу.

// 17375
//“So yeh’re saying,” Hagrid said, “that most Dark Wizards are Slytherins… but…”
-- Ти кажеш, -- сказав Геґрід, -- що більшість чорних чаклунів -- слизеринці...
проте...

// 17376
//“But most Slytherins are not Dark Wizards,” Draco said. He had a weary feeling
//they’d be at this a while, but like fighting a hydra, the important thing was
//to not give up.
-- Проте більшість слизеринців -- не чорні чаклуни, -- сказав Драко.

Він з втомою зрозумів, що вони довго будуть в цьому всіх переконувати, але як і
з гідрою, головне було не здаватися.

// 17377
//“I never thought of it that way,” the huge man said, sounding awestruck. “But,
//well, if yeh’re not all a house of snakes, then why - __get behind that
//tree!__”
-- Я ніколи про це так не думав, -- сказав велетенський чарівник, ніби громом
прибитий. -- Але, ну, якщо ви всі не просто гуртожиток гадюк, то чому...
__ховайтеся за тим деревом!__

// 17378
//Hagrid seized Draco and Tracey and hoisted them off the path behind a towering
//oak. He pulled out a bolt and fitted it into his crossbow, raising it, ready to
//fire. The three of them listened. Something was slithering over dead leaves
//nearby: it sounded like a cloak trailing along the ground. Hagrid was squinting
//up the dark path, but after a few seconds, the sound faded away.
Геґрід схопив Драко та Трейсі й переніс їх за височенний дуб. Він витягнув стрілу
й зарядив арбалет, підвів його, готовий до бою. Вони втрьох
прислу{stress}халися. Поряд щось шурхотіло серед мертвого листя: звучало, ніби
плащ волочився землею. Геґрід примружено роздивлявся темний путівець, та за
кілька секунд звук віддалився.

// 17379
//“I knew it,” Hagrid murmured. “There’s summat in here that shouldn’ be.”
-- Так і знав, -- пробурмотів він. -- Є шось в цьому лісі, чого бути не має.

// 17380
//They went after where the rustling sound had come from, with Hagrid in the lead
//and Tracey and Draco both gripping their wands at the ready, but they found
//nothing, despite searching in a widening circle with their ears straining for
//the faintest sound.
Вони пішли туди, звідки лунав був шелест -- Геґрід попереду, а Трейсі й Драко
позаду, обидвоє стисли палички, готові їх застосувати. Але вони нічого не
знайшли, хоча шукали, ходячи дедалі більшим колом, і напружували вуха в
очікуванні найтихішого звуку.

// 17381
//They walked on through the dense, dark trees. Draco kept looking over his
//shoulder, a feeling nagging at him that they were being watched. They had just
//passed a bend in the path when Tracey yelled and pointed.
Вони йшли під густими, темними деревами. Драко повсякчас озирався, йому весь час
здавалося, ніби хтось за ними спостерігає. Вони щойно пройшли поворот на їхньому
шляху, коли Трейсі скрикнула й вказала пальцем.

// 17382
//In the distance, a shower of red sparks lit the air.
Далеко в повітрі виднівся стовп червоних іскор.

// 17383
//“You two wait here!” Hagrid shouted. “Stay where yeh are, I’ll come back for
//yeh!”
//! 44%
-- Ви двоє, чекайте тут! -- вигукнув Геґрід. -- Лишайтеся, де є, я по вас
прийду!

// 17384
//Before Draco could say a word, Hagrid spun and crashed away through the
//undergrowth.
Не встигнув Драко й слова сказати, як Геґрід вже крутнувся й навпростець помчав
крізь чагарник.

// 17385
//Draco and Tracey stood looking at each other, until they heard nothing but the
//rustling of leaves around them. Tracey looked scared, but trying to hide it.
//Draco was feeling more annoyed than anything else. Apparently Rubeus Hagrid,
//when he had formed his plans for tonight, had not spent even five seconds
//visualizing the consequences if something actually went wrong.
Драко й Трейсі лишалося лише дивитися одне на одного. Окрім шурхоту листя
навколо, вони нічого не чули. Видавалося, Трейсі була переляканою, та намагалася
це приховати. Драко переважно відчував роздратування. Рубеус Геґрід, коли
планував був сьогоднішній вечір, явно не приділив бодай пʼяти секунд на те, щоб
уявити, які будуть наслідки, якщо щось і справді піде не так.

// 17386
//“Now what?” said Tracey, her voice a little high.
-- Що тепер? -- спитала Трейсі дещо зависоким голосом.

// 17387
//“We wait for Mr. Hagrid to come back.”
-- Ми чекаємо, доки повернеться містер Геґрід.

// 17388
//The minutes dragged by. Draco’s ears seemed sharper than usual, picking up
//every sigh of the wind, every cracking twig. Tracey kept looking up at the
//moon, as though to reassure herself that it wasn’t full yet.
Повільно минуло пʼять хвилин. Видавалося, вуха Драко почали ліпше чути -- він
вловлював кожен подмух вітра, кожен хрускіт гілки. Трейсі повсякчас зиркала на
місяць, ніби хотіла переконатися, що ще не повня.

// 17389
//“I’m -” Tracey whispered. “I’m getting a little nervous, Mr. Malfoy.”
-- Я... -- прошепотіла Трейсі. -- Я трохи нервую, містере Мелфой.

// 17390
//Draco thought about it a bit. To be honest, there __was__ something… well,
//it wasn’t that he was a coward, or even that he was scared. But there had been
//a murder at Hogwarts and if he’d been watching himself in a play, having just
//been abandoned in the Forbidden Forest by a half-giant, he would currently feel
//like yelling at the boy on stage that he should…
Драко обміркував це. Якщо чесно, __було__ щось... ну, він, звісно, не боягуз, і
навіть не був наляканим. Але в Гоґвортсі скоїли вбивство, і якби він дивився
таку пʼєсу, де когось щойно полишив у Забороненому лісі напіввелетень, він би
кричав хлопцеві на сцені, що той має...

// 17391
//Draco reached into his robes, and took out a mirror. Tapping the surface showed
//a man in red robes, who frowned almost immediately.
Драко дістав з мантії дзеркальце. Торкнувся поверхні, і там зʼявився чоловік у
червоній мантії. Той миттю спохмурнів.

// 17392
//“Auror Captain Eneasz Brodski,” the man said clearly, causing Tracey to start
//with the loudness in the quiet forest. “What is it, Draco Malfoy?”
-- Аврор-капітан Енеаш Бродскі, -- чітко сказав чоловік, Трейсі смикнулася через
гучний звук у тихому лісі. -- Що таке, Драко Мелфой?

// 17393
//“Put me on ten-minute check-in,” Draco said. He’d decided not to complain
//directly about his detention. He did __not__ want to look like a spoiled
//brat. “If I don’t respond, come get me. I’m in the Forbidden Forest.”
-- Перевірте мене за десять хвилин, -- сказав Драко. Він вирішив не скаржитися
на покарання напряму. Він __не__ хотів видаватися зіпсованою паскудою. -- Якщо
не відповім, заберіть мене. Я в Забороненому лісі.

// 17394
//Inside the mirror, the Auror’s brows rose. “What are you doing in the Forbidden
//Forest, Mr. Malfoy?”
У дзеркалі було видно, як здійнялися брови аврора.

-- Що ви робите в Забороненому лісі, містере Мелфой?

// 17395
//“Looking for the unicorn-eater with Mr. Hagrid,” Draco said, and tapped the
//mirror off, putting it back in his robes before the Auror could ask anything
//about detentions or say anything about serving it out without complaining.
-- Шукаю пожирача єдинорогів разом з містером Геґрідом, -- сказав Драко й
вимкнув дзеркальце другим доторком, одразу сховавши його в мантії, доки аврор не
встигнув нічого спитати про покарання та сказати про те, що в таких випадках
треба скаржитися.

// 17396
//Tracey’s head turned toward him, though it was a little too dim to read her
//expression. “Um, thanks,” she whispered.
Трейсі поглянула на нього, було надто темно, щоб розгледіти її вираз обличчя.

-- Ем, дякую, -- прошепотіла вона.

// 17397
//The few leaves which had emerged on their branches rustled as another, colder
//breeze blew through the forest.
Рідкісне листя на гілках поряд зашелестіло, коли черговий холодний подмух вітру
заколихав ліс.

// 17398
//Tracey’s voice was a little louder when she spoke again. “You didn’t have to -”
//she said, now sounding a little shy.
Голос Трейсі став дещо гучнішим, коли вона знову заговорила:

-- Не варто було, -- сказала вона, тепер, видавалося, соромʼязливо.

// 17399
//“Don’t mention it, Miss Davis.”
-- Забудьте, міс Девіс.

// 17400
//The dark silhouette of Tracey put her hand to her cheek, as though to conceal a
//blush that wasn’t visible anyway. “I mean, not for __me__ -”
Було ледь видно, що Трейсі приклала руку до щоки, ніби хотіла приховати
румʼянець, якого все одно неможливо було побачити.

-- Тобто, не варто було __для мене__...

// 17401
//“No, really,” Draco said. “Don’t mention it. At all.” He would have threatened
//to take out the mirror and order Captain Brodski not to rescue __her,__
//but he was afraid she would consider that flirting.
-- Ні, серйозно, -- сказав Драко. -- Забудьте. Ніби цього не було.

Він би пригрозив їй, що дістане дзеркальце й накаже капітанові Бродскі не
рятувати __її__, але боявся, що вона сприйме це як флірт.

// 17402
//Tracey’s silhouetted head turned from him, looked away. Finally she said, in a
//smaller voice, “It’s too soon, isn’t it -”
Темна в цьому освітленні Трейсі відвернулася, поглянула кудись вбік. Нарешті
вона тихіше сказала:

-- Ще зарано, так...

// 17403
//A high scream echoed through the woods, a not-quite-human sound, the scream of
//something like a horse; and Tracey shrieked and ran.
У лісі пролунав високий крик -- не зовсім людський звук, ближче до крику коня. І
Трейсі заволала й побігла.

// 17404
//__“No, you numbskull!__” yelled Draco, plunging after her. The sound had
//been so eerie that Draco wasn’t certain where it came from - but he thought
//that Tracey Davis might, in fact, be running straight toward the source of that
//eerie scream.
//! 55%
-- __Ні, дурепо!__ -- крикнув Драко й кинувся за нею. Звук був таким химерним,
що Драко не міг би сказати, звідки він... він навіть вважав, що насправді,
можливо, Трейсі біжить прямо на джерело цього химерного крику.

// 17405
//Brambles whipped at Draco’s eyes, he had to keep one hand in front of his face
//to shield them, trying not to lose track of Tracey because it seemed obvious
//that, if this was a play, and they got separated, __one__ of them was
//going to die. Draco thought of the mirror secured within his robes but he
//somehow knew that if he tried to take it out one-handed while running, the
//mirror would inevitably fall and be lost -
Кущі ожини хльостали обличчя Драко, він прикривав очі рукою
й старався не загубити слід Трейсі, бо видавалося очевидним, що якби це була
пʼєса й вони розділилися, то __один__ з них помер би. Драко подумав про
дзеркальце, що чекало в мантії, але чомусь був певен, що якби він спробував
дістати його однією рукою під час бігу, то дзеркальце неминуче впало б і
загубилося...

// 17406
//Ahead of them, Tracey had stopped, and Draco felt relieved for an instant,
//before he saw.
Попереду Трейсі спинилася, і на мить Драко відчув полегшення -- перед тим, як
побачив.

// 17407
//Another unicorn lay on the ground, surrounded by a slowly widening pool of
//silver blood, the edge of the blood creeping across the ground like spilled
//mercury. Her coat was purple, like the color of the night sky, her horn exactly
//the same twilight color as her skin, her visible flank marked by a pink
//star-blotch surrounded by white patches. The sight tore at Draco’s heart, even
//more than the other unicorn because this one’s eyes were staring glassily right
//at him, and because there was a -
Інша єдиноріг лежала на землі посеред повільно зростаючої калюжі срібної крові.
Край рідини поширювався землею, мов пролита ртуть. Її шерсть була пурпуровою,
ніби нічне небо, її ріг точно такої сутінкової барви, як і шкіра, а на
зверненому до них боці виднілася рожева пляма у формі зірки з білою шерстю
навколо. Це видовище здалося Драко навіть сумнішим, ніж попередній єдиноріг, бо
в цього скляні очі дивилися прямо на нього, і через те, що поряд була...

// 17408
//- blurring, twisting form -
...нечітка, рухлива фігура...

// 17409
//- feeding on an open wound on the unicorn’s side, like it was drinking from it
//-
...що схилилася над відкритою раною єдинорога, ніби пила з...

// 17410
//- Draco couldn’t understand, somehow couldn’t recognize what he was seeing -
...Драко не міг зрозуміти, чомусь не міг усвідомити, що він бачить...

// 17411
//- __it was looking at them.__
...__воно дивилося на них.__

// 17412
//The blurring, seething, unrecognizable darkness seemed to turn to regard them.
//A hiss came from it, like the hiss of the deadliest snake which ever had
//existed, something more dangerous by far than any Blue Krait.
Нечітка, нестабільна, незбагненна темрява ніби озирнулася поглянути на них.
Почулося шипіння, ніби від найсмертельнішої змії, що тільки могла існувати, ніби
щось значно небезпечніше за синього крайта.

// 17413
//Then it bent back over the wound in the unicorn, and continued to drink.
А тоді воно знову нахилилося до рани єдинорога, й почало пити.

// 17414
//The mirror was in Draco’s hand, and it remained lifeless as his finger
//mechanically tapped at the surface, over and over.
Дзеркальце було вже в руці Драко, але воно не подавало жодних ознак життя, хоча
він механічно стукав по поверхні знову й знову.

// 17415
//Tracey was holding her wand now, saying things like “Prismatis” and “Stupefy”
//but nothing was happening.
Трейсі вже тримала в руках паличку й вимовляла "`Прізматіс`" та "`Закляктус`",
але нічого не відбувалося.

// 17416
//Then the seething outline rose up, like a man rising to his feet only not so;
//and it seemed to scuttle forward, moving with a strange half-jump across the
//dying unicorn’s legs, approaching the two of them.
Тоді рухливий силует здійнявся, ніби людина підвелася на ноги, але не так. А
тоді воно рушило вперед, воно дивним напівстрибком обійшло ноги майже мертвого
єдинорога, почало наближатися до них.

// 17417
//Tracey tugged at his sleeve and then turned to run, run from something that
//could hunt down unicorns. Before she could take three steps there came another
//terrible hiss, burning his ears, and Tracey fell to the ground and did not
//move.
Трейсі потягла його за рукав, а потім розвернулася й почала бігти. Бігти від
чогось, що здатне вполювати єдинорога. Вона й трьох кроків не зробила, як
пролунало жахливе шипіння, що обпекло його вуха, і Трейсі впала на землю, і
більше не ворушилася.

// 17418
//Somewhere in the back of his mind, Draco knew that he was about to die. Even if
//the Auror checked his mirror this very instant, there was no way anyone could
//get here fast enough. There was no __time.__
Підсвідомо Драко знав, що він от-от помре. Навіть якщо аврори перевірять його
дзеркало саме зараз, неможливо було дістатися сюди достатньо швидко. Не
вистачило б __часу__.

// 17419
//Running hadn’t worked.
Втекти було неможливо.

// 17420
//Magic hadn’t worked.
Магія не працювала.

// 17421
//The seething outline came closer, while Draco tried, in his last moments, to
//solve the riddle.
Тоді мінливий силует наблизився, доки Драко старався, в ці останні миті,
розвʼязати цю загадку.

// 17422
//Then a blazing silver ball of light plunged out of the night sky and hung
//there, illuminating the forest as bright as daylight, and the seething outline
//leapt backwards, as though in horror of the light.
А тоді з нічного неба впала куля яскравого срібного світла й зависла. Вона
осяяла ліс, ніби був день, і мінливий силует відстрибнув, ніби був нажаханий цим
світлом.

// 17423
//Four broomsticks plunged out of the sky, three Aurors with bright multicolored
//shields and Harry Potter holding his wand aloft, seated behind Professor
//McGonagall within a larger shield.
Чотири мітли впали з неба: три аврори за різнобарвними щитами й Гаррі Поттер з
паличкою напоготові, що сидів за спиною професорки Макґонеґел всередині більшого
щита.

// 17424
//“Get out of here!” roared Professor McGonagall -
-- Тікайте звідси! -- проревіла професорка Макґонеґел...

// 17425
//__- an instant before the seething thing gave forth another terrible
//hiss, and all the shielding spells winked out. The three Aurors and Professor
//McGonagall fell off their broomsticks and dropped heavily to the forest floor,
//lying motionless.__
//! 66%
__...а за мить рухлива істота знову жахливо зашипіла, і всі закляття щитів
зникли. Три аврори й професорка Макґонеґел впали з мітел, і сильно вдарилися об
землю лісу, і лишилися нерухомо лежати.__

// 17426
//__Draco couldn’t breathe, the most intense fear he’d ever felt in his
//life gripping all through his chest, sending tendrils around his heart.__
__Драко не міг дихати, ним опанував найжахливіший страх, скував його тіло,
тягнувся до серця.__

// 17427
//__Harry Potter, who had remained untouched, silently guided his
//broomstick toward the ground -__
__Гаррі Поттер, якого це все не зачепило, мовчки направив мітлу до землі...__

// 17428
//__- and then leapt off to stand between Draco and the seething outline,
//interposing himself like a living shield.__
__...а тоді зістрибнув з неї та став між Драко та мінливою фігурою, ніби живий
щит.__

// 17429
//__“Run!” said Harry Potter, turning his head half-back to look at Draco.
//The silver moonlight gleamed on his face. “Run, Draco! I’ll hold it off!”__
-- __Тікай! -- сказав Гаррі Поттер, напівозирнувшись до Драко. Срібне місячне
сяйво освітлювало його обличчя. -- Тікай, Драко! Я це затримаю!__

// 17430
//__“You can’t fight that thing alone!” Draco cried aloud. A nausea was in
//his stomach, a churning sensation that, looking back in memory, seemed both
//like and unlike a sense of guilt, as though it had the sensations but not quite
//all of the emotion.__
-- __Ти не можеш битися з цією штукою сам! -- закричав Драко. Він відчував
нудоту, якесь тремтіння, що, коли він згадував про це, водночас здавалося й не
здавалося відчуттям провини, ніби в нього були відповідні фізичні відчуття, але
без емоцій.__

// 17431
//__“I must,” Harry Potter said grimly. “Go!”__
-- __Я мушу, -- суворо сказав Гаррі Поттер. -- Іди!__

// 17432
//__“Harry, I - I’m sorry, for everything - I” Though later, looking back,
//Draco couldn’t quite remember what he’d meant to apologize for, maybe it’d been
//that he was planning to overthow Harry’s conspiracy, all that time ago.__
-- __Гаррі, я... вибач, за все... я...__

__Хоча пізніше Драко не міг згадати, за що ж він хотів вибачитися... Можливо, за
те, що він планував був захопити владу в таємному товаристві Гаррі, ще дуже
давно.__

// 17433
//__The seething figure, now seeming blacker and more terrible, rose up
//into the air, hovering off the ground.__
__Рухлива фігура тепер видавалася ще чорнішою та жахливішою, здійнялася в
повітря, зависла над землею.__

// 17434
//__“GO!” shouted Harry.__
-- __ІДИ! -- закричав Гаррі.__

// 17435
//__Draco turned and fled headlong into the woods,with the branches
//whipping at his face. Behind him, Draco heard another terrible hiss, and
//Harry’s voice rising, crying something that Draco couldn’t make out from the
//distance; Draco turned his head for only an instant to look back, and in that
//moment ran into something, hitting his head HARD, and blacked out.__
__Драко розвернувся й почав тікати в ліс, гілки били його по обличчю. Він почув
за спиною чергове шипіння, а також гучний голос Гаррі -- що той вигукував, Драко
не міг розібрати з такої відстані. Драко лише на мить озирнувся, і саме в цю
мить він на щось налетів, СИЛЬНО вдарився головою та знепритомнів.__

***

// 17436
//Harry held a tight grip on his wand, a Prismatic Sphere glowing around him. He
//stared levelly at the seething, blurring form in front of him, and said, “What
//on Earth are you doing?”
Гаррі міцно тримав паличку, призматична сфера сяяла навколо нього. Він незмигно
дивився на нечітку, мінливу фігуру перед собою, і сказав:

-- Що, заради Мерліна, ви робите?

// 17437
//The seething blurs resolved, reformed, relaxed back into a hooded form.
//Whatever concealment had been at work - a device rather than a Charm, Harry
//guessed, since the magic had been able to affect him - had prevented his mind
//from recognizing the shape or even that the shape was human. But it hadn’t
//prevented Harry from recognizing the sharp sense of doom.
Мінливі нечіткості відступили, вгамувалися, перетворилися на фігуру в плащі. Хай
яке маскування використовувалося -- напевно якийсь пристрій, а не чари, бо вони
впливали на Гаррі, -- не дозволяли його розуму впізнати форму, навіть те, що це
була людина. Але жодним чином не приховували різкого відчуття неминучого.

// 17438
//Professor Quirrell stood straight with silver blood all down the front of his
//enshrouding black cloak, and gave a sigh, looking at the fallen forms of three
//Aurors, Tracey Davis, Draco Malfoy, and Professor McGonagall. “I had honestly
//thought,” Professor Quirrell murmured, “that I jammed that mirror without
//alarm. What were two first-year Slytherins doing alone in the Forbidden Forest?
//Mr. Malfoy has more sense than this… What a fiasco.”
Професор Квірел стояв струнко, срібна кров стікала чорним плащем, що його
окутував. Професор із захисту зітхнув, обвів поглядом тіла трьох аврорів, Трейсі
Девіс, Драко Мелфоя та професорки Макґонеґел.

-- Я був певен, -- пробурмотів професор Квірел, -- що непомітно заблокував
дзеркало. Що двоє слизеринців-першокласників робили самі в Забороненому лісі?
Містер Мелфой же не такий дурний... Що за фіаско.

// 17439
//Harry didn’t answer. The sense of doom was as strong as Harry could ever
//remember feeling it, a feeling of power in the air so great that it was almost
//tangible. Some part of him was still viscerally shocked at how fast the shields
//surrounding the Aurors had been torn apart. He almost hadn’t been able to
//__see__ the successive lashes of color which had torn away the shields
//like tissue paper. It made the duel Professor Quirrell had fought against the
//Auror in Azkaban look like a mockery, a child’s game - though Professor
//Quirrell had claimed, then, that if he’d fought for real the Auror would have
//been dead in seconds; and Harry knew now that this was also true.
Гаррі не відповідав. Відчуття невідворотного ще ніколи не було таким гострим.
Відчуття сили в повітрі було таким потужним, ніби цю силу можна було навіть
помацати. Частково він досі був до мозку кісток шокований тим, як швидко
розлетілися щити навколо аврорів. Він майже міг __бачити__ кілька кольорових
ударів, що розірвали щити, мов папір. Після цього дуель професора Квірела з
аврором в Азкабані видавалася знущанням, дитячою грою -- як і стверджував був
професор Квірел, якби він бився на повну, аврор був би мертвим протягом секунд.
І тепер Гаррі знав, що це було правдою.

// 17440
//Just how high did the power ladder go?
Наскільки ж могутнім міг стати чаклун?

// 17441
//“I take it,” Harry said, managing to keep his voice steady, “that your eating
//unicorns has something to do with why you’ll get fired from the Defense
//Professor position. I don’t suppose you’d care to explain in considerable
//detail?”
-- Я так розумію, -- сказав Гаррі доволі спокійним голосом, -- що поїдання
єдинорогів якимось чином повʼязано з тим, чому вас звільнять з посади професора
із захисту. Гадаю, у вас немає бажання докладно розʼяснити свої дії?

// 17442
//Professor Quirrell looked at him. The almost tangible sense of power in the air
//seemed to diminish, drawing back into the Defense Professor. “I shall indeed
//explain myself,” the Defense Professor said. “I need to cast a few Memory
//Charms first, and then we may go off and discuss it, for it would not be wise
//for me to stay. You will return to this time later, as I know.”
Професор Квірел поглянув на нього. Майже матеріальне відчуття сили в повітрі
відступило, повернулося до самого професора із захисту.

-- Я й справді розʼясню, -- сказав професор із захисту. -- Та спершу треба
накласти кілька чарів памʼяті, а тоді підемо це обговорити. Для мене нерозумно
лишатися тут. Ви пізніше повернетеся в цей час, я знаю.

// 17443
//Harry willed himself to be able to see through the Cloak he had mastered; and
//knew that another Harry stood beside him, hidden by his own Deathly Hallow.
//Harry then told his Cloak to hide himself from himself once more, and it did;
//being able to perceive your future self meant having to match the memory later.
//! 77%
Гаррі силою волі поглянув крізь Плащ, господарем якого він тепер був. І знав, що
інший Гаррі стоїть за спиною під прикриттям смертельної реліквії. Гаррі сказав
Плащу знову сховати себе від себе, і так і сталося. Коли спостерігаєш за
майбутнім собою, доводиться точно відтворювати побачені дії пізніше.

// 17444
//Harry’s own voice said, then, sounding strange in present-Harry’s ears, “He has
//a surprisingly good explanation.”
Гаррі почув свій голос, що був доволі дивним для теперішнього Гаррі.

-- У нього на диво хороше пояснення.

// 17445
//Present-Harry remembered the words as best he could. Nothing more was said
//between them.
Теперішній Гаррі старанно запамʼятав слова. Більше вони один одному нічого не
казали.

// 17446
//Professor Quirrell walked to Draco’s form, and chanted the spell of the False
//Memory Charm. The Defense Professor stood there for perhaps a minute, seemingly
//lost to the world.
Професор Квірел підійшов до тіла Драко й вимовив слова чар хибної памʼяті. Він
стояв там з хвилину, ніби занурившись у внутрішній світ.

// 17447
//Harry had been studying Obliviations, these last couple of weeks - though he
//couldn’t have helped cast the spells, unless he was willing to exhaust himself
//almost completely, and for some reason they wanted an Auror to lose every
//single life memory involving the color blue. But Harry had some idea, now, of
//the concentration which the far more difficult False Memory Charm entailed. You
//had to try to live the other person’s entire life inside your own head, at
//least if you wanted to create the False Memories with less than a
//sixteen-to-one slowdown as you separately crafted sixteen major tracks of
//memory. It might have been quiet, there might have been no outward sign; but
//Harry knew something of the difficulties now, and he knew to be impressed.
Гаррі почав був вивчати забуттятуси -- кілька останніх тижнів. Хоч він і не
здатен був накласти ці закляття, хіба що готовий був майже цілковито себе
виснажити, а також з якоїсь причини захотів би, щоб аврор втратив будь-які
спогади, повʼязані з синім кольором. Але тепер Гаррі розумів, якої концентрації
потребують значно складніші чари хибної памʼяті. Треба було спробувати подумки
прожити ціле життя іншої людини, принаймні, якщо ви не бажали створити хибні
спогади зі сповільненням, більшим за шістнадцять до одного -- тоді можна
виготовляти основні ланцюги спогадів окремо. Можливо, було тихо, не було жодних
видимих ознак, але Гаррі тепер розумів складність операції, і був вражений.

// 17448
//Professor Quirrell finished, and moved on to Tracey Davis, then the three
//Aurors, and finally Professor McGonagall. Harry waited, but future-Harry made
//no protest. It was possible that even Professor McGonagall, if she’d been
//awake, wouldn’t have protested. It was not yet the Ides of May, and apparently
//there would be a surprisingly good explanation.
Професор Квірел завершив операцію й перейшов до Трейсі Девіс, потім до трьох
аврорів, і нарешті до професорки Макґонеґел. Гаррі чекав, а майбутній Гаррі не
протестував. Навіть якби професорка Макґонеґел була притомна, можливо, вона б
теж не протестувала. Ще не прийшли травневі іди, і, видається, буде на диво
хороше пояснення.

// 17449
//With a gesture, Draco’s stunned body was lifted, and sent a short distance into
//the woods, before being carefully deposited on the ground. Then a final gesture
//from Professor Quirrell ripped a huge chunk out of the unicorn’s side, leaving
//behind ragged edges; the raw meat hovered in the air, then wavered in
//Vanishment and was gone.
Жестом руки приголомшене тіло Драко здійнялося в повітря, трохи відлетіло до
дерев, а тоді обережно повернулося на землю. І останнім жестом професор Квірел
вирвав величезний шматок з боку єдинорога, лишивши рвані краї. Мʼясо зависло в
потвітрі, а тоді пішло хвилями й щезло.

// 17450
//“Done,” Professor Quirrell said. “I must depart this place now, Mr. Potter.
//Come with me, and remain here.”
-- Готово, -- сказав професор Квірел. -- Тепер я маю піти звідси, містере
Поттер. Ходімо зі мною та лишайтеся.

// 17451
//Professor Quirrell strode away, and Harry followed and remained behind.
Професор покрокував геть, і Гаррі пішов слідом та лишився позаду.

// 17452
//They walked through the woods in silence for a time, before Harry heard faint
//voices in the distance. The next set of Aurors, presumably, after the first set
//had fallen out of contact. What his future self was saying, Harry didn’t know.
Деякий час вони йшли лісом мовчки, тоді Гаррі почув неясні голоси далеко позаду.
Напевно зʼявився, ще один загін аврорів, коли перша трійка не відповідала. Що їм
казав майбутній він, Гаррі не знав.

// 17453
//“They won’t detect us, nor hear our speech,” said Professor Quirrell. The sense
//of power and doom around the Defense Professor was still strong. The man seated
//himself on a tree stump, one where the light of the almost-full moon fell full
//on him. “I should first say that when you speak to the Aurors, in the future,
//you should tell them that you frightened away the seething dark, the same as
//you did that Dementor. It is what Mr. Malfoy will remember seeing.” Professor
//Quirrell gave a small sigh. “It may cause some alarm, if they conclude that
//some horror kin to Dementors, and strong enough to break the Aurors’ shields,
//is loose in the Forbidden Forest. But I could not think of what else to do. If
//the forest is better-guarded after this - but with any luck I have already
//consumed what I need. Would you mind telling me how you arrived so quickly? How
//did you know Mr. Malfoy was in trouble?”
-- Вони не зможуть нас знайти, а також не зможуть почути нас, -- сказав професор
Квірел. Відчуття невідворотного навколо професора із захисту досі було сильним.
Чоловік сів на пеньок, такий, що світло місяця цілком його освітлювало. --
Спершу я скажу, що коли ви розмовлятимете з аврорами, у майбутньому, треба
сказати їм, що ви налякали нечітку темряву так само, як того дементора. Це
памʼятатиме містер Мелфой, -- професор Квірел зітхнув. -- Те, що в Забороненому
лісі нишпорить жах на кшталт дементорів, достатньо сильний, щоб скасовувати щити
авторів, так просто не залишать. Але я не вигадав, що ще можна було зробити.
Якщо ліс тепер ліпше охоронятимуть... але, якщо пощастило, я вже отримав усе, що
мені було треба. Можете розказати мені, як ви прибули так швидко? Як ви
дізналися, що містер Мелфой у біді?

// 17454
//After Captain Brodski had learned that Draco Malfoy was in the Forbidden
//Forest, seemingly in the company of Rubeus Hagrid, Brodski had begun inquiring
//to find out who had authorized this, and had still been unable to find out when
//Draco Malfoy had missed check-in. Despite Harry’s protests, the Auror Captain,
//who was authorized to know about Time-Turners, had refused to allow deployment
//to before the time of the missed check-in; there were standard procedures
//involving Time. But Brodski had given Harry written orders allowing him to go
//back and deploy an Auror trio to arrive one second after the missed check-in
//time. There had been a Patronus Charm to locate Draco, which Harry had
//successfully willed to take the form of a ball of pure silver light, and the
//flight of Aurors had arrived on time to the second.
Коли капітан Бродскі дізнався був, що Драко Мелфой у Забороненому лісі, нібито в
компанії Рубеуса Геґріда, Бродскі почав був дізнаватися, хто на це дав дозвіл, і
так і не встигнув дізнався, коли Драко Мелфой не вийшов на звʼязок у призначений час.
Незважаючи на протести Гаррі, капітан аврорів, що мав доступ до інформації про
часовороти, відмовився дозволити переміщення до часу перед домовленим часом
звʼязку з Драко. Існували стандартні процедури щодо часу. Але Бродскі дав Гаррі
письмовий наказ, що дозволяв йому повернутися в часі й взяти трійку аврорів, щоб
прибути за секунду після домовленого часу звʼязку. Далі він використав чари
патронуса, щоб знайти Драко. Гаррі успішно силою волі надав патронусові форму
кулі щирого срібного світла, і загін аврорів прибув вчасно.

// 17455
//“I’m afraid I couldn’t say,” Harry replied evenly. Professor Quirrell was still
//a major suspect, and it was good for him not to know the details. “Now why are
//you eating unicorns?”
-- Боюся, не можу сказати, -- рівним голосом відповів Гаррі. Професор Квірел
досі був одним з основних підозрюваних, і було ліпше, щоб він не знав цих
подробиць. -- Добре, то чому ви їсте єдинорогів?

// 17456
//“Ah,” Professor Quirrell said. “As to that…” The man hesitated. “I was drinking
//the blood of unicorns, not eating them. The missing flesh, the ragged marks
//upon the body - those were to obscure the case, to make it seem like some other
//predator. The use of unicorn’s blood is too well-known.”
-- А, -- сказав професор Квірел. -- Щодо цього... -- він завагався. -- Я пив
кров єдинорогів, а не їв їх. Зникла плоть, зазубрені відбитки на тілі -- усе це
аби очі відвести, щоб більше скидалося на хижака. Використання крові єдинорогів
надто добре відоме.

// 17457
//“I don’t know it,” Harry said.
//! 88%
-- Мені воно невідоме, -- сказав Гаррі.

// 17458
//“I know you do not,” the Defense Professor said sharply. “Or you would not be
//pestering me about it. The power of unicorn’s blood is to preserve your life
//for a time, even if you are on the very verge of death.”
-- Знаю, що невідоме, -- різко сказав професор із захисту. -- Інакше ви б не
надокучали мені такими питаннями. Сила крові єдинорога дозволяє зберегти життя
на деякий час, навіть якщо ви вже на самому краю смерті.

// 17459
//There was a stretch of time when Harry’s brain claimed to be refusing to
//process the words, which was of course a lie, because you couldn’t know the
//meaning you weren’t allowed to process, without having already processed it.
Деякий час мозок Гаррі стверджував, що відмовляється розуміти слова, що, звісно,
було брехнею, бо неможливо не знати значення тих слів, які ти відмовляєшся
розуміти, ще не зрозумівши їх.

// 17460
//A strange sense of blankness overtook Harry, an absence of reaction, maybe this
//was what other people felt like when someone went off-script, and they couldn’t
//say or think of anything to do.
Дивне відчуття запаморочення охопило Гаррі, відсутність реакції, можливо, саме
так інші люди почувалися, коли хтось відходив від своєї ролі, а вони не знали,
не могли вигадати, що можна сказати чи зробити.

// 17461
//Of course Professor Quirrell was dying, not just occasionally ill.
Ну звісно професор Квірел помирав, а не просто трохи хворів.

// 17462
//Professor Quirrell had known he was dying. He’d volunteered to take the Defense
//Professor position at Hogwarts, after all.
Професор Квірел знав був, що помирає. Він же з власної волі посів посаду
професора із захисту в Гоґвортсі.

// 17463
//Of course he’d been getting worse the whole school year. Of course illnesses
//which kept getting worse had a predictable destination at their end.
Ну звісно протягом всього шкільного року йому ставало гірше. Звісно, хвороба
посилювалася, і цілком очікувано мала добігти кінця після завершення шкільного
року.

// 17464
//Harry’s brain had surely known already, somewhere in the safe back of his mind
//where he could refuse to process things he’d already processed.
Мозок Гаррі без сумніву це вже знав, десь на рівні підсвідомості, там, де можна
було безпечно відмовлятися розуміти те, що ти вже зрозумів.

// 17465
//Of course that was why Professor Quirrell wouldn’t be able to teach Battle
//Magic next year. Professor McGonagall wouldn’t even have to fire him. He would
//just be -
Ну звісно саме через це професор Квірел не зможе викладати бойову магію
наступного року. Професорці Макґонеґел навіть не доведеться його звільняти. Він
просто...

// 17466
//- dead.
...помре.

// 17467
//“No,” Harry said, his voice a little shaky. “There has to be a way -”
-- Ні, -- сказав Гаррі, його голос тремтів. -- Має бути якийсь спосіб...

// 17468
//“I am not stupid nor particularly eager to die. I have already looked. I had to
//go this far simply to last out my lesson plans, having less time than I had
//thought, and -” The head of the dark moonlit figure turned away. “I think I do
//not want to hear about it, Mr. Potter.”
-- Я не дурний, і не надто бажаю помирати. Я вже шукав спосіб. Мені довелося
вдатися аж до таких засобів просто щоб витримати власний план занять -- у мене
менше часу, ніж я очікував... -- він відвернув голову від Гаррі, його було
доволі погано видно у місячному сяйві. -- Гадаю, я не хочу про це слухати,
містере Поттер.

// 17469
//Harry’s breath hitched. Too many emotions were bubbling up in him at once.
//After denial came anger, according to a ritual someone had just made up. And
//yet it seemed surprisingly appropriate.
Гаррі перехопило подих. Забагато емоцій забурлили в ньому одночасно. Після
заперечення прийшла злість, згідно з щойно вигаданим кимось ритуалом. І все одно
злість видавалася на диво доречною.

// 17470
//“And why -” Harry’s breath hitched again. “Why isn’t unicorn’s blood standard
//in healer’s kits, then? To keep someone alive, even if they’re on the very
//verge of dying from their legs being eaten?”
-- І чому... -- Гаррі знову перехопило подих. -- Чому ж тоді кров єдинорогів не
міститься в кожному набору цілителів? Зберегти комусь життя, навіть якщо вони на
самому краю смерті через те, що зʼїли їхні ноги?

// 17471
//“Because there are permanent side effects,” Professor Quirrell said quietly.
-- Бо від цієї крові є хронічні побічні ефекти, -- тихо сказав професор Квірел.

// 17472
//“Side effects? __Side effects?__ What kind of side effect is medically
//worse than __DEATH?__” Harry’s voice rose on the last word until he was
//shouting.
-- Побічні ефекти? __Побічні ефекти?__ Які це побічні ефекти визнані медициною
гіршими за __СМЕРТЬ__? -- Гаррі підвищував голос, і на останньому слові він уже
кричав.

// 17473
//“Not everyone thinks the same way we do, Mr. Potter. Though, to be fair, the
//blood must come from a live unicorn and the unicorn must die in the drinking.
//Would I be here otherwise?”
-- Не всі вважають так, як ми, містере Поттер. Хоча, заради справедливості, кров
має бути випита в живого єдинорога, і єдиноріг має померти під час пиття. Хіба ж
я був би тут в іншому разі?

// 17474
//Harry turned, stared at the surrounding trees. “Have a herd of unicorns at St.
//Mungos. Floo the patients there, or use portkeys.”
Гаррі відвернувся, втупився у дерева навколо.

-- Утримувати табун єдинорогів у святого Мунґа. Флуювати туди пацієнтів, чи
використовувати летиключі.

// 17475
//“Yes, that would work.”
-- Так, це б спрацювало.

// 17476
//Harry’s face tightened, the only outward sign behind his trembling hands of
//everything that was welling up inside him. He needed to scream, needed some
//outlet, needed __something__ he couldn’t name and finally Harry leveled
//his wand at a tree and shouted __“Diffindo!__”
Обличчя Гаррі напружилося -- єдиний зовнішній прояв, крім ще тремтіння рук,
усього, що в ньому накопичилося. Йому треба було кричати, треба було якось
випустити це все, треба було __щось__, чого він не міг назвати. Зрештою Гаррі
направив паличку на дерево й закричав:

-- __Діфіндо!__

// 17477
//There was a sharp tearing sound, and a cut appeared across the wood.
Пролунав різкий хрускіт, і на дереві зʼявився поріз.

// 17478
//__“Diffindo!”__
-- __Діфіндо!__

// 17479
//Another cut. Harry had learned the Charm only ten days previously, after he’d
//started getting serious about self-defense. It was theoretically a second-year
//Charm, but the anger pouring through him seemed to know no bounds, he knew
//enough now not to exhaust himself and he still had power yet.
Ще один розріз. Гаррі вивчив був ці чари лише десять днів тому, коли він почав
серйозно сприймати самозахист. Теоретично це були чари для другокласників, але
лють, що охопила його, не знала меж, він вже був достатньо досвідчений, щоб не
виснажити себе цілковито, і в нього досі не вичерпалися сили.

// 17480
//__“Diffindo!__” Harry had aimed at a branch this time, and it plummeted to
//the ground with a sound of twigs and leaves.
-- __Діфіндо!__ -- цього разу Гаррі цілився в гілку, і вона повалилася на землю
з усім листям та гіллям.

// 17481
//There didn’t seem to be any tears inside him, only pressure with no outlet.
У нього не було сліз -- лише тиск, який ніяк не виходило випустити.

// 17482
//“I shall leave you to it,” Professor Quirrell said quietly. The Defense
//Professor rose from his tree stump, the unicorn’s blood still moonlit on the
//black cloak he wore, and drew his hood back over his head.
-- Я залишу вас тут, -- тихо сказав професор Квірел. Професор із захисту
підвівся з пенька, кров єдинорога досі виблискувала в місячному промінні на його
чорному плащі, він накинув каптур на голову.
